(footprint "ECS-.327-7-34B" (version 20210424) (generator pcbnew) (layer "F.Cu")
  (tedit 60D312B2)
  (attr through_hole)
  (fp_text reference "REF**" (at 0 -1.778) (layer "F.SilkS")
    (effects (font (size 1 1) (thickness 0.15)))
    (tstamp b862f0ec-f54d-4b73-918d-83a1ea3bbb76)
  )
  (fp_text value "XTAL_ECX-34R_ECS" (at 0.254 1.778) (layer "F.SilkS")
    (effects (font (size 1 1) (thickness 0.15)))
    (tstamp 100344e2-347d-4d7d-88e2-161a334bbac4)
  )
  (fp_text user "*" (at 0 0) (layer "F.SilkS")
    (effects (font (size 1 1) (thickness 0.15)))
    (tstamp 1eb71b04-4878-4a4b-8b7a-d184536d5b50)
  )
  (fp_text user "Copyright 2021 Accelerated Designs. All rights reserved." (at 0 0) (layer "Cmts.User")
    (effects (font (size 0.127 0.127) (thickness 0.002)))
    (tstamp 845cfbfb-b449-4f4b-a51e-06b1b09e8773)
  )
  (fp_text user "*" (at 0 0) (layer "F.Fab")
    (effects (font (size 1 1) (thickness 0.15)))
    (tstamp 470421b3-a131-4fa8-99d2-9a9c6a142b8f)
  )
  (fp_line (start 0.647219 -0.8763) (end -0.647219 -0.8763) (layer "F.SilkS") (width 0.12) (tstamp 5e2bbb13-65c9-4cd5-a557-88e8dc8dad47))
  (fp_line (start -0.647219 0.8763) (end 0.647219 0.8763) (layer "F.SilkS") (width 0.12) (tstamp a1e9073c-3e08-4d78-b2d0-fa0760cc4110))
  (fp_circle (center -2.6543 0) (end -2.5781 0) (layer "F.SilkS") (width 0.12) (fill none) (tstamp f93849be-dd4a-40dd-a3bd-ce74e2dc9a4a))
  (fp_line (start 1.8542 -1.0033) (end 1.8542 -0.9017) (layer "F.CrtYd") (width 0.05) (tstamp 109997b7-5fdb-4685-9a1b-c4872d3075d0))
  (fp_line (start 1.8542 -0.9017) (end 1.8542 -0.9017) (layer "F.CrtYd") (width 0.05) (tstamp 164a30fa-ca7d-422e-b7b4-784b172f546d))
  (fp_line (start -1.8542 0.9017) (end -1.8542 -0.9017) (layer "F.CrtYd") (width 0.05) (tstamp 16a2d8dd-2fda-49de-9c81-91e5962a6435))
  (fp_line (start -1.8542 -1.0033) (end 1.8542 -1.0033) (layer "F.CrtYd") (width 0.05) (tstamp 4a413ab8-febc-432e-b2b9-52a69c50bc41))
  (fp_line (start -1.8542 0.9017) (end -1.8542 0.9017) (layer "F.CrtYd") (width 0.05) (tstamp 749df364-1937-432e-aa45-246456256427))
  (fp_line (start 1.8542 1.0033) (end -1.8542 1.0033) (layer "F.CrtYd") (width 0.05) (tstamp 7a989876-c7ee-4a0b-ae3e-23b79ae5edb5))
  (fp_line (start -1.8542 -0.9017) (end -1.8542 -1.0033) (layer "F.CrtYd") (width 0.05) (tstamp 95600c8e-3e7c-4b1d-ab32-b223fcd8b743))
  (fp_line (start 1.8542 0.9017) (end 1.8542 0.9017) (layer "F.CrtYd") (width 0.05) (tstamp a67909d2-5b48-487e-9bdf-632e9d57a858))
  (fp_line (start -1.8542 -0.9017) (end -1.8542 -0.9017) (layer "F.CrtYd") (width 0.05) (tstamp ccb8cd40-9f47-4c61-b585-61739b663d9f))
  (fp_line (start -1.8542 1.0033) (end -1.8542 0.9017) (layer "F.CrtYd") (width 0.05) (tstamp e258c222-46ef-4454-a87a-830ebdef415e))
  (fp_line (start 1.8542 0.9017) (end 1.8542 1.0033) (layer "F.CrtYd") (width 0.05) (tstamp f5b67695-f46f-47c7-8f86-a150b4714153))
  (fp_line (start 1.8542 -0.9017) (end 1.8542 0.9017) (layer "F.CrtYd") (width 0.05) (tstamp f632c6c3-1459-49f1-8d12-ebb0c00a85f5))
  (fp_line (start 1.6002 -0.7493) (end -1.6002 -0.7493) (layer "F.Fab") (width 0.1) (tstamp 204a01ff-af1e-49b8-8c55-508b93b58ba8))
  (fp_line (start -1.6002 -0.7493) (end -1.6002 0.7493) (layer "F.Fab") (width 0.1) (tstamp 32532bfe-6756-4eb7-8e6c-11b073a43467))
  (fp_line (start -1.6002 0.7493) (end 1.6002 0.7493) (layer "F.Fab") (width 0.1) (tstamp 9e604c2b-6f1e-4dda-97c3-c5375b5c5409))
  (fp_line (start 1.6002 0.7493) (end 1.6002 -0.7493) (layer "F.Fab") (width 0.1) (tstamp d0a35c24-8ffc-4414-a1d6-c234485a3043))
  (fp_circle (center 0 0) (end 0.0762 0) (layer "F.Fab") (width 0.1) (fill none) (tstamp 4a848a4e-ce2d-42af-949e-4db8659035db))
  (pad "1" smd rect locked (at -1.1938 0) (size 0.6096 1.2954) (layers "F.Cu" "F.Paste" "F.Mask") (tstamp df9e4252-5231-4a82-9ef3-1d46641fea31))
  (pad "2" smd rect locked (at 1.1938 0) (size 0.6096 1.2954) (layers "F.Cu" "F.Paste" "F.Mask") (tstamp e38d62c1-65f2-4131-a9e2-24f71c82220d))
  (model "C:/Users/Yoann/Documents/WeRobotics/KiCad-Library/Download/XTAL_ECX-34R_ECS.step"
    (offset (xyz 0 0 0))
    (scale (xyz 1 1 1))
    (rotate (xyz 0 0 0))
  )
)
