(footprint "max3375eeka" (version 20210424) (generator pcbnew) (layer "F.Cu")
  (tedit 60D2038F)
  (attr through_hole)
  (fp_text reference "REF**" (at 0 -3.048) (layer "F.SilkS")
    (effects (font (size 1 1) (thickness 0.15)))
    (tstamp cff38114-6a7c-45e1-abab-f328363fb7f1)
  )
  (fp_text value "21-0078H_MXM" (at 3.81 -4.572) (layer "F.SilkS")
    (effects (font (size 1 1) (thickness 0.15)))
    (tstamp b013e980-19e7-4796-8e07-41234781f207)
  )
  (fp_text user "*" (at -1.617149 -1.778) (layer "F.SilkS")
    (effects (font (size 1 1) (thickness 0.15)))
    (tstamp 3e5e4f5c-54b1-4fb9-8d31-ba521b15a041)
  )
  (fp_text user "*" (at -1.617149 -1.778) (layer "F.SilkS")
    (effects (font (size 1 1) (thickness 0.15)))
    (tstamp f1622c29-8a6b-44eb-9175-39d16779457d)
  )
  (fp_text user "Copyright 2021 Accelerated Designs. All rights reserved." (at 0 0) (layer "Cmts.User")
    (effects (font (size 0.127 0.127) (thickness 0.002)))
    (tstamp 94ce5e1d-69f1-4d09-9cb3-4901be5c8a2d)
  )
  (fp_text user "*" (at -0.4953 -1.4224) (layer "F.Fab")
    (effects (font (size 1 1) (thickness 0.15)))
    (tstamp 962b12fb-38b4-4263-b79a-65dcfdb9e896)
  )
  (fp_text user "*" (at -0.4953 -1.4224) (layer "F.Fab")
    (effects (font (size 1 1) (thickness 0.15)))
    (tstamp b12ba422-6f6f-4a91-8977-1e0ea414abcf)
  )
  (fp_line (start -1.0033 1.6256) (end 1.0033 1.6256) (layer "F.SilkS") (width 0.12) (tstamp 3a4d2636-dc09-4f2d-a822-ff35ad96e3d2))
  (fp_line (start 1.0033 -1.6256) (end -1.0033 -1.6256) (layer "F.SilkS") (width 0.12) (tstamp e02bae73-af36-4b05-933f-bb5fe49c546a))
  (fp_line (start 1.1303 -1.7526) (end 1.1303 -1.4445) (layer "F.CrtYd") (width 0.05) (tstamp 08388de4-49e5-401d-ac17-9ffe25933617))
  (fp_line (start -1.1303 -1.4445) (end -1.1303 -1.7526) (layer "F.CrtYd") (width 0.05) (tstamp 1709c6ac-4a11-4add-8f9e-3bfa545f3565))
  (fp_line (start -1.1303 1.4445) (end -2.103999 1.4445) (layer "F.CrtYd") (width 0.05) (tstamp 2c2e9ad4-274e-4df6-9f1a-88c3b2023b4d))
  (fp_line (start -2.103999 1.4445) (end -2.103999 -1.4445) (layer "F.CrtYd") (width 0.05) (tstamp 2cd0159f-4059-4e40-a1d4-b1e928d29e67))
  (fp_line (start 1.1303 -1.4445) (end 2.103999 -1.4445) (layer "F.CrtYd") (width 0.05) (tstamp 6916c28e-d157-4581-ab30-19137d25eb3a))
  (fp_line (start -1.1303 1.7526) (end -1.1303 1.4445) (layer "F.CrtYd") (width 0.05) (tstamp 7311213b-d06e-4080-938d-d5a71ef1d1f7))
  (fp_line (start 1.1303 1.7526) (end -1.1303 1.7526) (layer "F.CrtYd") (width 0.05) (tstamp ac85eb8f-8ab9-4a97-aa58-e03b91b5d902))
  (fp_line (start -1.1303 -1.7526) (end 1.1303 -1.7526) (layer "F.CrtYd") (width 0.05) (tstamp af90998d-42b8-42fe-9a98-ec70ef1b1f4e))
  (fp_line (start 1.1303 1.4445) (end 1.1303 1.7526) (layer "F.CrtYd") (width 0.05) (tstamp c27facca-0c8d-487b-93f8-1e03defd9f64))
  (fp_line (start -2.103999 -1.4445) (end -1.1303 -1.4445) (layer "F.CrtYd") (width 0.05) (tstamp c802190c-b6b8-43e7-9916-78b5cc4c472b))
  (fp_line (start 2.103999 1.4445) (end 1.1303 1.4445) (layer "F.CrtYd") (width 0.05) (tstamp dd982356-4fcd-4559-ae80-b95e8b0aa242))
  (fp_line (start 2.103999 -1.4445) (end 2.103999 1.4445) (layer "F.CrtYd") (width 0.05) (tstamp e138de5c-fd26-4731-95b0-4a4ad4a8a42e))
  (fp_line (start -0.8763 -0.7845) (end -0.8763 -1.1655) (layer "F.Fab") (width 0.1) (tstamp 07859e94-b572-4133-8915-79603913e751))
  (fp_line (start 0.8763 1.4986) (end 0.8763 -1.4986) (layer "F.Fab") (width 0.1) (tstamp 1906c543-8680-4896-9332-8ef30bd0a5d7))
  (fp_line (start -1.5 -0.1345) (end -0.8763 -0.1345) (layer "F.Fab") (width 0.1) (tstamp 30e52fbd-d70a-4881-90bc-02ffe02eef98))
  (fp_line (start 0.8763 -0.7845) (end 1.5 -0.7845) (layer "F.Fab") (width 0.1) (tstamp 34d26373-eef2-48dd-a5ed-d787113fe2cc))
  (fp_line (start 1.5 0.1345) (end 0.8763 0.1345) (layer "F.Fab") (width 0.1) (tstamp 3c337482-d818-48b9-baaf-1308428f7410))
  (fp_line (start -0.8763 0.5155) (end -0.8763 0.1345) (layer "F.Fab") (width 0.1) (tstamp 4218e3a0-9c91-47ce-baff-d9f21d5dafc2))
  (fp_line (start 0.8763 0.7845) (end 0.8763 1.1655) (layer "F.Fab") (width 0.1) (tstamp 4621e9c3-2cf1-437b-a207-d967db7694b5))
  (fp_line (start 0.8763 -0.1345) (end 1.5 -0.1345) (layer "F.Fab") (width 0.1) (tstamp 477433ce-89c7-4650-bbe0-50de9b3b2ad3))
  (fp_line (start -1.5 0.7845) (end -1.5 1.1655) (layer "F.Fab") (width 0.1) (tstamp 60254b1b-aab9-4ae0-86f6-573fcfb90b45))
  (fp_line (start 1.5 1.1655) (end 1.5 0.7845) (layer "F.Fab") (width 0.1) (tstamp 644f8382-4b95-4b6c-a9a6-782170105483))
  (fp_line (start 0.8763 -1.1655) (end 0.8763 -0.7845) (layer "F.Fab") (width 0.1) (tstamp 6605ea3b-3abb-4a0b-9d4d-852b7fca032a))
  (fp_line (start 1.5 -0.5155) (end 0.8763 -0.5155) (layer "F.Fab") (width 0.1) (tstamp 6913d992-73a2-428e-b8b6-09ad85f396cf))
  (fp_line (start -1.5 0.5155) (end -0.8763 0.5155) (layer "F.Fab") (width 0.1) (tstamp 6c1b7ecb-f357-44d3-b691-763b820b91a9))
  (fp_line (start -1.5 0.1345) (end -1.5 0.5155) (layer "F.Fab") (width 0.1) (tstamp 730ef72e-838f-40f7-bd8a-97eeaffb2c69))
  (fp_line (start -1.5 -1.1655) (end -1.5 -0.7845) (layer "F.Fab") (width 0.1) (tstamp 752a3399-8fdc-4316-a223-3315e5bac22b))
  (fp_line (start -0.8763 0.7845) (end -1.5 0.7845) (layer "F.Fab") (width 0.1) (tstamp 76d6b54d-0dda-46b5-b36a-11af97fc884e))
  (fp_line (start 1.5 0.7845) (end 0.8763 0.7845) (layer "F.Fab") (width 0.1) (tstamp 7a47852c-aacf-4ffb-b2a9-287b38cdd457))
  (fp_line (start -0.8763 1.4986) (end 0.8763 1.4986) (layer "F.Fab") (width 0.1) (tstamp 84be5b3d-937f-4b91-ba9c-6f6d067e224a))
  (fp_line (start 0.8763 0.1345) (end 0.8763 0.5155) (layer "F.Fab") (width 0.1) (tstamp 88f993bc-34b6-42c7-97f0-59372aab0f7f))
  (fp_line (start -0.8763 -0.5155) (end -1.5 -0.5155) (layer "F.Fab") (width 0.1) (tstamp 92120479-aa01-4bf0-9b74-06187f5448ea))
  (fp_line (start -1.5 -0.5155) (end -1.5 -0.1345) (layer "F.Fab") (width 0.1) (tstamp 9cd27cb5-07b2-4d06-892a-8cdcb71dfbcb))
  (fp_line (start -0.8763 -0.1345) (end -0.8763 -0.5155) (layer "F.Fab") (width 0.1) (tstamp 9d32162b-e35f-4435-9554-3832f3360333))
  (fp_line (start -0.8763 -1.4986) (end -0.8763 1.4986) (layer "F.Fab") (width 0.1) (tstamp 9def491d-2644-4b2f-a17b-e547edcca643))
  (fp_line (start 1.5 -0.1345) (end 1.5 -0.5155) (layer "F.Fab") (width 0.1) (tstamp a0b72be8-7238-4aff-bc89-5320f20b0de8))
  (fp_line (start 1.5 -0.7845) (end 1.5 -1.1655) (layer "F.Fab") (width 0.1) (tstamp a15e4080-9ce3-4f55-bfee-e7c93ec75570))
  (fp_line (start -0.8763 1.1655) (end -0.8763 0.7845) (layer "F.Fab") (width 0.1) (tstamp a46a127d-b199-4e37-ba9a-255d4003f56e))
  (fp_line (start -0.8763 0.1345) (end -1.5 0.1345) (layer "F.Fab") (width 0.1) (tstamp a8427643-07ed-41a7-92b0-be28ce54b2fb))
  (fp_line (start 0.8763 -1.4986) (end -0.8763 -1.4986) (layer "F.Fab") (width 0.1) (tstamp ad9ec711-d6b4-4f38-80fe-b58aa9ecd597))
  (fp_line (start 1.5 0.5155) (end 1.5 0.1345) (layer "F.Fab") (width 0.1) (tstamp b1e8e735-f789-428f-bd8e-3878462606b7))
  (fp_line (start 0.8763 1.1655) (end 1.5 1.1655) (layer "F.Fab") (width 0.1) (tstamp ba3586bd-ed84-4743-96cb-6660401caf4e))
  (fp_line (start -1.5 1.1655) (end -0.8763 1.1655) (layer "F.Fab") (width 0.1) (tstamp c49941f0-8574-47f0-83a8-4a61271a2870))
  (fp_line (start 1.5 -1.1655) (end 0.8763 -1.1655) (layer "F.Fab") (width 0.1) (tstamp c759c919-a8ee-4084-b9ea-4e75ea5f2ab3))
  (fp_line (start 0.8763 -0.5155) (end 0.8763 -0.1345) (layer "F.Fab") (width 0.1) (tstamp dc633033-f7fd-489b-9167-cb1b346921df))
  (fp_line (start 0.8763 0.5155) (end 1.5 0.5155) (layer "F.Fab") (width 0.1) (tstamp df438650-0d5c-41c3-bef3-b3bf6f9c5ec9))
  (fp_line (start -1.5 -0.7845) (end -0.8763 -0.7845) (layer "F.Fab") (width 0.1) (tstamp ec3db1c7-d89e-4d82-8ee3-55874560b36c))
  (fp_line (start -0.8763 -1.1655) (end -1.5 -1.1655) (layer "F.Fab") (width 0.1) (tstamp f3a19031-b0e7-4059-b9d7-e5bbefd59df5))
  (fp_arc (start 0 -1.4986) (end 0.3048 -1.4986) (angle 180) (layer "F.Fab") (width 0.1) (tstamp 4e70d76c-6e35-4810-a110-32b9f7cd562a))
  (pad "1" smd rect locked (at -1.363149 -0.974999) (size 0.973699 0.431) (layers "F.Cu" "F.Paste" "F.Mask") (tstamp 08eda261-4465-44c4-826d-6a7ba55890f5))
  (pad "2" smd rect locked (at -1.363149 -0.325001) (size 0.973699 0.431) (layers "F.Cu" "F.Paste" "F.Mask") (tstamp 2f852c0b-feab-4e3a-9e7f-fc03bf81284d))
  (pad "3" smd rect locked (at -1.363149 0.325001) (size 0.973699 0.431) (layers "F.Cu" "F.Paste" "F.Mask") (tstamp a692dc89-318d-4235-8811-0ffde6a550aa))
  (pad "4" smd rect locked (at -1.363149 0.974999) (size 0.973699 0.431) (layers "F.Cu" "F.Paste" "F.Mask") (tstamp 2d1af14b-7320-4361-9fc7-2b61e42b1c6e))
  (pad "5" smd rect locked (at 1.363149 0.974999) (size 0.973699 0.431) (layers "F.Cu" "F.Paste" "F.Mask") (tstamp 16672f55-b72b-4c3d-9385-7db32b51ac36))
  (pad "6" smd rect locked (at 1.363149 0.325001) (size 0.973699 0.431) (layers "F.Cu" "F.Paste" "F.Mask") (tstamp b2f49855-fde8-41a9-9d61-e64cdb3006dd))
  (pad "7" smd rect locked (at 1.363149 -0.325001) (size 0.973699 0.431) (layers "F.Cu" "F.Paste" "F.Mask") (tstamp 2d222044-a995-479d-a6cb-937d90d014b0))
  (pad "8" smd rect locked (at 1.363149 -0.974999) (size 0.973699 0.431) (layers "F.Cu" "F.Paste" "F.Mask") (tstamp 9ed9005b-fed2-476e-9821-84a42974b92d))
)
