(footprint "Mill-Max Single Pin 0853-0-15-20-82-14-11-0" (version 20210424) (generator pcbnew) (layer "F.Cu")
  (tedit 60B93947)
  (fp_text reference "REF**" (at 4 0 unlocked) (layer "F.SilkS")
    (effects (font (size 1 1) (thickness 0.15)))
    (tstamp 7c84b935-5abb-4a38-8638-119e1751ed16)
  )
  (fp_text value "Mill-Max Single Pin 0853-0-15-20-82-14-11-0" (at 0 1 unlocked) (layer "F.Fab") hide
    (effects (font (size 1 1) (thickness 0.15)))
    (tstamp 631da46e-1bfb-4283-a05a-032630f3ca4a)
  )
  (fp_text user "${REFERENCE}" (at 0 2.5 unlocked) (layer "F.Fab") hide
    (effects (font (size 1 1) (thickness 0.15)))
    (tstamp 644efdef-fed4-4623-9634-38a31f65454a)
  )
  (pad "1" thru_hole circle (at 0 0) (size 3.429 3.429) (drill 2.286) (layers *.Cu *.Mask) (tstamp 9d8f419c-bb8c-4633-954f-9275fcea8438))
)
