(footprint "SMBJ5.0A-13-F" (version 20210424) (generator pcbnew) (layer "F.Cu")
  (tedit 60D202FC)
  (attr through_hole)
  (fp_text reference "REF**" (at -1.016 -3.048) (layer "F.SilkS")
    (effects (font (size 1 1) (thickness 0.15)))
    (tstamp bf959861-e914-4233-bd3e-31db69941425)
  )
  (fp_text value "SMB_DIO" (at 0 -4.572) (layer "F.SilkS")
    (effects (font (size 1 1) (thickness 0.15)))
    (tstamp 9fba5a57-103f-498d-a003-09c706a0fded)
  )
  (fp_text user "*" (at 0 0) (layer "F.SilkS")
    (effects (font (size 1 1) (thickness 0.15)))
    (tstamp 3282a0e0-cd99-47ac-bdca-0a0ffff03a74)
  )
  (fp_text user "Copyright 2021 Accelerated Designs. All rights reserved." (at 0 0) (layer "Cmts.User")
    (effects (font (size 0.127 0.127) (thickness 0.002)))
    (tstamp ef7aeb34-0933-4744-a576-e4808c637f35)
  )
  (fp_text user "*" (at 0 0) (layer "F.Fab")
    (effects (font (size 1 1) (thickness 0.15)))
    (tstamp e0f51534-7be5-4657-8575-36086aa682a8)
  )
  (fp_line (start -3.303001 0) (end -4.573001 0) (layer "F.SilkS") (width 0.12) (tstamp 17fad604-0daa-42f0-92ed-fe281ed5e214))
  (fp_line (start -4.319001 0) (end -3.557001 0.508) (layer "F.SilkS") (width 0.12) (tstamp 5a3957f6-4bea-4b7d-ae5d-504b8ee1233e))
  (fp_line (start -3.557001 -0.635) (end -3.557001 0.635) (layer "F.SilkS") (width 0.12) (tstamp 675d1320-457f-45e4-9433-65e80862ef49))
  (fp_line (start -2.922001 -2.097) (end -2.922001 -1.43774) (layer "F.SilkS") (width 0.12) (tstamp 6e11ffc4-f2ab-44a4-b6e5-4286c4fd7866))
  (fp_line (start 2.922001 2.097) (end 2.922001 1.43774) (layer "F.SilkS") (width 0.12) (tstamp 91562d91-8a93-4fce-8677-cb4acd05b210))
  (fp_line (start -4.319001 0) (end -3.557001 -0.254) (layer "F.SilkS") (width 0.12) (tstamp 9a043320-ecfc-4ac3-a150-1285d1340985))
  (fp_line (start -4.319001 0) (end -3.557001 -0.127) (layer "F.SilkS") (width 0.12) (tstamp ae6274a1-3634-4561-9d06-05a5afa918f8))
  (fp_line (start 2.922001 -1.43774) (end 2.922001 -2.097) (layer "F.SilkS") (width 0.12) (tstamp b737a2ef-7246-4c67-adcc-be09aa6966b1))
  (fp_line (start -4.319001 0) (end -3.557001 0.254) (layer "F.SilkS") (width 0.12) (tstamp bef8b653-debd-42fd-ab04-0a7a71b3ef69))
  (fp_line (start -4.319001 0) (end -3.557001 -0.381) (layer "F.SilkS") (width 0.12) (tstamp bfaf2e01-08c3-412b-b96f-0aef55739d97))
  (fp_line (start -4.319001 0) (end -3.557001 0.635) (layer "F.SilkS") (width 0.12) (tstamp d8f94606-cfc8-4900-958e-f89f9e9fe189))
  (fp_line (start -4.319001 0) (end -3.557001 0.127) (layer "F.SilkS") (width 0.12) (tstamp dc38b475-9d3d-401c-8ab2-80920d03e98b))
  (fp_line (start -4.319001 0) (end -3.557001 -0.508) (layer "F.SilkS") (width 0.12) (tstamp dd8d9f97-7da8-4431-a770-e06fbf89e210))
  (fp_line (start -4.319001 0) (end -3.557001 0.381) (layer "F.SilkS") (width 0.12) (tstamp e56af766-3a6a-4966-b029-19d19f14817c))
  (fp_line (start -4.319001 0) (end -3.557001 -0.635) (layer "F.SilkS") (width 0.12) (tstamp e5ef5317-aafc-470d-b5a6-66c8e485be77))
  (fp_line (start -2.922001 2.097) (end 2.922001 2.097) (layer "F.SilkS") (width 0.12) (tstamp e7e642ae-db4c-4212-8657-55c56cfb5273))
  (fp_line (start -4.319001 -0.635) (end -4.319001 0.635) (layer "F.SilkS") (width 0.12) (tstamp e80be150-36d5-4f63-9dfd-61f76ef73618))
  (fp_line (start -2.922001 1.43774) (end -2.922001 2.097) (layer "F.SilkS") (width 0.12) (tstamp eb6b2d79-3fe2-4444-8f18-f6174d121414))
  (fp_line (start 2.922001 -2.097) (end -2.922001 -2.097) (layer "F.SilkS") (width 0.12) (tstamp ef3cd915-0f0c-46ab-baea-186f063161ee))
  (fp_line (start 3.049 2.224) (end -3.049 2.224) (layer "F.CrtYd") (width 0.05) (tstamp 04b7339d-bdbf-4e27-b76a-c29eb5868d73))
  (fp_line (start -3.049 -2.224) (end 3.049 -2.224) (layer "F.CrtYd") (width 0.05) (tstamp 0acbe658-0e8e-4a8b-a0c2-40cd6d4dc90d))
  (fp_line (start 3.049 -1.359) (end 3.198999 -1.359) (layer "F.CrtYd") (width 0.05) (tstamp 106baa13-cc36-4e2c-9d46-883c76f42bfc))
  (fp_line (start -3.198999 1.359) (end -3.198999 -1.359) (layer "F.CrtYd") (width 0.05) (tstamp 20ea0d2c-dc0b-408f-8d18-8d6d8b8a0d0d))
  (fp_line (start -3.049 -1.359) (end -3.049 -2.224) (layer "F.CrtYd") (width 0.05) (tstamp 606645f6-6791-4e0e-a8ec-136713abb3fb))
  (fp_line (start 3.049 -2.224) (end 3.049 -1.359) (layer "F.CrtYd") (width 0.05) (tstamp 613616f4-9cdc-46c7-bf02-6ed72b1ac395))
  (fp_line (start -3.049 1.359) (end -3.198999 1.359) (layer "F.CrtYd") (width 0.05) (tstamp 8b13a2c2-fd67-4d0b-93b7-84fdf8fd71f3))
  (fp_line (start -3.049 2.224) (end -3.049 1.359) (layer "F.CrtYd") (width 0.05) (tstamp 91de5a71-417d-4f55-84a3-7b41efecc010))
  (fp_line (start 3.198999 1.359) (end 3.049 1.359) (layer "F.CrtYd") (width 0.05) (tstamp c4170ba4-625f-43a1-a850-50076b127f43))
  (fp_line (start 3.198999 -1.359) (end 3.198999 1.359) (layer "F.CrtYd") (width 0.05) (tstamp c94f0ba4-cd20-44fd-8ea8-a6938025626c))
  (fp_line (start 3.049 1.359) (end 3.049 2.224) (layer "F.CrtYd") (width 0.05) (tstamp d41668cf-993b-4092-9a54-20d939720b5e))
  (fp_line (start -3.198999 -1.359) (end -3.049 -1.359) (layer "F.CrtYd") (width 0.05) (tstamp f19a4c47-3055-4ebe-ab4a-232c27508116))
  (fp_line (start -4.319001 0) (end -3.557001 -0.254) (layer "F.Fab") (width 0.1) (tstamp 027ffd81-23e2-4101-8570-2159b15f1993))
  (fp_line (start -4.319001 -0.635) (end -4.319001 0.635) (layer "F.Fab") (width 0.1) (tstamp 1749a05f-d410-4292-9ebb-fb9ecc5776d4))
  (fp_line (start -4.319001 0) (end -3.557001 -0.127) (layer "F.Fab") (width 0.1) (tstamp 246de36c-862e-410b-a3cd-e1b421906f41))
  (fp_line (start -4.319001 0) (end -3.557001 0.254) (layer "F.Fab") (width 0.1) (tstamp 35ae8968-6873-493a-8378-079ed96e3f60))
  (fp_line (start -4.319001 0) (end -3.557001 0.127) (layer "F.Fab") (width 0.1) (tstamp 3bf2855c-b96e-4c52-82aa-dc9e511058da))
  (fp_line (start -3.557001 -0.635) (end -3.557001 0.635) (layer "F.Fab") (width 0.1) (tstamp 49301975-3f11-42cf-9b7c-101c28838f45))
  (fp_line (start -2.795001 -1.97) (end -2.795001 1.97) (layer "F.Fab") (width 0.1) (tstamp 5a3a38d9-58e7-4a3c-b850-6c85f20d4657))
  (fp_line (start -4.319001 0) (end -3.557001 -0.381) (layer "F.Fab") (width 0.1) (tstamp 6429f0d9-a899-4781-bd9b-1e44afeb555c))
  (fp_line (start -4.319001 0) (end -3.557001 0.508) (layer "F.Fab") (width 0.1) (tstamp 6de7727b-48f1-45df-8d45-b6d5c4ff6c6a))
  (fp_line (start 2.795001 -1.97) (end -2.795001 -1.97) (layer "F.Fab") (width 0.1) (tstamp 8728e2ef-8290-4768-919f-75644b4886f9))
  (fp_line (start -4.319001 0) (end -3.557001 0.635) (layer "F.Fab") (width 0.1) (tstamp 947c364b-9c89-4daa-ad97-3df64a375566))
  (fp_line (start -2.795001 1.97) (end 2.795001 1.97) (layer "F.Fab") (width 0.1) (tstamp 9f12ed2b-8916-4def-b1d4-d2268ea2e79d))
  (fp_line (start -4.319001 0) (end -3.557001 0.381) (layer "F.Fab") (width 0.1) (tstamp a27250b9-589b-4a09-9b80-8206129b0258))
  (fp_line (start -3.303001 0) (end -4.573001 0) (layer "F.Fab") (width 0.1) (tstamp beda78f3-55dd-4e54-99f2-435383a1d4c5))
  (fp_line (start -4.319001 0) (end -3.557001 -0.508) (layer "F.Fab") (width 0.1) (tstamp d273f8c7-f51a-4574-bc25-e192bbbaed14))
  (fp_line (start 2.795001 1.97) (end 2.795001 -1.97) (layer "F.Fab") (width 0.1) (tstamp d2b29404-9fd6-447b-84fe-43599f3b530e))
  (fp_line (start -4.319001 0) (end -3.557001 -0.635) (layer "F.Fab") (width 0.1) (tstamp fbb37332-3f78-46fc-97b4-c40dfbb2bad9))
  (pad "1" smd rect locked (at -1.86 0 90) (size 2.21 2.169999) (layers "F.Cu" "F.Paste" "F.Mask") (tstamp 239f76ad-26ee-4476-9b38-d72207c97c4f))
  (pad "2" smd rect locked (at 1.86 0 90) (size 2.21 2.169999) (layers "F.Cu" "F.Paste" "F.Mask") (tstamp ada55edc-f86d-4880-bf31-43b74396f2d0))
)
