(kicad_symbol_lib (version 20201005) (generator kicad_symbol_editor)
  (symbol "dmp3099:DMP3099L-7" (pin_names (offset 0.254)) (in_bom yes) (on_board yes)
    (property "Reference" "Q" (id 0) (at 20.32 10.16 0)
      (effects (font (size 1.524 1.524)))
    )
    (property "Value" "DMP3099L-7" (id 1) (at 20.32 7.62 0)
      (effects (font (size 1.524 1.524)))
    )
    (property "Footprint" "DMP3099L-7_DIO" (id 2) (at 20.32 6.096 0)
      (effects (font (size 1.524 1.524)) hide)
    )
    (property "Datasheet" "" (id 3) (at 0 0 0)
      (effects (font (size 1.524 1.524)))
    )
    (property "ki_locked" "" (id 4) (at 0 0 0)
      (effects (font (size 1.27 1.27)))
    )
    (property "ki_fp_filters" "DMP3099L-7_DIO DMP3099L-7_DIO-M DMP3099L-7_DIO-L" (id 5) (at 0 0 0)
      (effects (font (size 1.27 1.27)) hide)
    )
    (symbol "DMP3099L-7_1_1"
      (polyline
        (pts
          (xy 7.62 -7.62)
          (xy 33.02 -7.62)
        )
        (stroke (width 0.127)) (fill (type none))
      )
      (polyline
        (pts
          (xy 7.62 5.08)
          (xy 7.62 -7.62)
        )
        (stroke (width 0.127)) (fill (type none))
      )
      (polyline
        (pts
          (xy 33.02 -7.62)
          (xy 33.02 5.08)
        )
        (stroke (width 0.127)) (fill (type none))
      )
      (polyline
        (pts
          (xy 33.02 5.08)
          (xy 7.62 5.08)
        )
        (stroke (width 0.127)) (fill (type none))
      )
      (pin unspecified line (at 0 0 0) (length 7.62)
        (name "G" (effects (font (size 1.4986 1.4986))))
        (number "1" (effects (font (size 1.4986 1.4986))))
      )
      (pin unspecified line (at 40.64 -2.54 180) (length 7.62)
        (name "S" (effects (font (size 1.4986 1.4986))))
        (number "2" (effects (font (size 1.4986 1.4986))))
      )
      (pin unspecified line (at 40.64 0 180) (length 7.62)
        (name "D" (effects (font (size 1.4986 1.4986))))
        (number "3" (effects (font (size 1.4986 1.4986))))
      )
    )
  )
)
