
(module JST_SM02B-PASS-TBT_LF__SN_ (layer F.Cu) (tedit 60B88241)
  (descr "")
  (fp_text reference REF** (at -0.825 -6.735 0) (layer F.SilkS)
    (effects (font (size 1.0 1.0) (thickness 0.015)))
  )
  (fp_text value JST_SM02B-PASS-TBT_LF__SN_ (at 12.51 6.535 0) (layer F.Fab)
    (effects (font (size 1.0 1.0) (thickness 0.015)))
  )
  (fp_line (start -4.0 3.65) (end 4.0 3.65) (layer F.Fab) (width 0.127))
  (fp_line (start 4.0 3.65) (end 4.0 -5.25) (layer F.Fab) (width 0.127))
  (fp_line (start -4.0 -5.25) (end -4.0 3.65) (layer F.Fab) (width 0.127))
  (fp_line (start -4.0 -5.25) (end 4.0 -5.25) (layer F.Fab) (width 0.127))
  (fp_circle (center 2.25 4.725) (end 2.35 4.725) (layer F.SilkS) (width 0.2))
  (fp_line (start -4.5 3.9) (end -1.75 3.9) (layer F.CrtYd) (width 0.05))
  (fp_line (start -1.75 3.9) (end -1.75 5.5) (layer F.CrtYd) (width 0.05))
  (fp_line (start -1.75 5.5) (end 1.75 5.5) (layer F.CrtYd) (width 0.05))
  (fp_line (start 1.75 5.5) (end 1.75 3.9) (layer F.CrtYd) (width 0.05))
  (fp_line (start 1.75 3.9) (end 4.5 3.9) (layer F.CrtYd) (width 0.05))
  (fp_line (start 4.5 3.9) (end 4.5 -5.5) (layer F.CrtYd) (width 0.05))
  (fp_line (start 4.5 -5.5) (end -4.5 -5.5) (layer F.CrtYd) (width 0.05))
  (fp_line (start -4.5 -5.5) (end -4.5 3.9) (layer F.CrtYd) (width 0.05))
  (fp_circle (center 2.25 4.725) (end 2.35 4.725) (layer F.Fab) (width 0.2))
  (fp_line (start -4.0 -2.8) (end -4.0 -5.25) (layer F.SilkS) (width 0.127))
  (fp_line (start -4.0 -5.25) (end 4.0 -5.25) (layer F.SilkS) (width 0.127))
  (fp_line (start 4.0 -5.25) (end 4.0 -2.8) (layer F.SilkS) (width 0.127))
  (fp_line (start -4.0 1.7) (end -4.0 3.65) (layer F.SilkS) (width 0.127))
  (fp_line (start -4.0 3.65) (end -1.85 3.65) (layer F.SilkS) (width 0.127))
  (fp_line (start 4.0 1.7) (end 4.0 3.65) (layer F.SilkS) (width 0.127))
  (fp_line (start 4.0 3.65) (end 1.85 3.65) (layer F.SilkS) (width 0.127))
  (pad 1 smd rect (at 1.0 3.9) (size 1.0 2.7) (layers F.Cu F.Mask F.Paste))
  (pad 2 smd rect (at -1.0 3.9) (size 1.0 2.7) (layers F.Cu F.Mask F.Paste))
  (pad S2 smd rect (at -3.35 -0.55) (size 1.8 3.8) (layers F.Cu F.Mask F.Paste))
  (pad S1 smd rect (at 3.35 -0.55) (size 1.8 3.8) (layers F.Cu F.Mask F.Paste))
)