(module CONN_BM04B-PASS-1-TFTLFSN_JST (layer F.Cu)
  (fp_text reference REF** (at 0 2.4702) (layer F.SilkS)
    (effects (font (size 1 1) (thickness .15)))
  )
  (fp_text value CONN_BM04B-PASS-1-TFTLFSN_JST (at 0 2.4702) (layer F.SilkS)
    (effects (font (size 1 1) (thickness .15)))
  )
  (fp_text user "Copyright 2016 Accelerated Designs. All rights reserved." (at 0 0) (layer Cmts.User)
    (effects (font (size .127 .127) (thickness .002)))
  )
  (fp_text user "*" (at 0 0) (layer F.SilkS)
    (effects (font (size 1 1) (thickness .15)))
  )
  (fp_text user "*" (at 0 0) (layer F.Fab)
    (effects (font (size 1 1) (thickness .15)))
  )
  (fp_line (start -4.064761 7.937601) (end 4.064761 7.937601) (layer F.SilkS) (width .1524))
  (fp_line (start 6.1468 4.933261) (end 6.1468 1.9432) (layer F.SilkS) (width .1524))
  (fp_line (start 6.1468 1.9432) (end 3.828039 1.9432) (layer F.SilkS) (width .1524))
  (fp_line (start -6.1468 1.9432) (end -6.1468 3.07875) (layer F.SilkS) (width .1524))
  (fp_line (start -6.0198 7.810601) (end 6.0198 7.810601) (layer F.Fab) (width .1524))
  (fp_line (start 6.0198 7.810601) (end 6.0198 2.0702) (layer F.Fab) (width .1524))
  (fp_line (start 6.0198 2.0702) (end -6.0198 2.0702) (layer F.Fab) (width .1524))
  (fp_line (start -6.0198 2.0702) (end -6.0198 7.810601) (layer F.Fab) (width .1524))
  (fp_line (start -3.828039 1.9432) (end -6.1468 1.9432) (layer F.SilkS) (width .1524))
  (fp_line (start -1.828041 1.9432) (end -2.171959 1.9432) (layer F.SilkS) (width .1524))
  (fp_line (start .171961 1.9432) (end -.171961 1.9432) (layer F.SilkS) (width .1524))
  (fp_line (start 2.171959 1.9432) (end 1.828041 1.9432) (layer F.SilkS) (width .1524))
  (fp_line (start -6.1468 4.36165) (end -6.1468 4.933261) (layer F.SilkS) (width .1524))
  (fp_line (start -6.5565 .7684) (end -6.5565 9.228401) (layer F.CrtYd) (width .1524))
  (fp_line (start -6.5565 9.228401) (end 6.5565 9.228401) (layer F.CrtYd) (width .1524))
  (fp_line (start 6.5565 9.228401) (end 6.5565 .7684) (layer F.CrtYd) (width .1524))
  (fp_line (start 6.5565 .7684) (end -6.5565 .7684) (layer F.CrtYd) (width .1524))
  (fp_circle (center -6.7818 2.4702) (end -6.4008 2.4702) (layer F.SilkS) (width .1524))
  (fp_circle (center -6.7818 2.4702) (end -6.4008 2.4702) (layer B.SilkS) (width .1524))
  (fp_circle (center -2.999999 4.3752) (end -2.618999 4.3752) (layer F.Fab) (width .1524))
  (pad 1 smd rect (at -2.999999 2.4702) (size .9906 2.8956) (layers F.Cu F.Paste F.Mask))
  (pad 2 smd rect (at -1.000001 2.4702) (size .9906 2.8956) (layers F.Cu F.Paste F.Mask))
  (pad 3 smd rect (at 1.000001 2.4702) (size .9906 2.8956) (layers F.Cu F.Paste F.Mask))
  (pad 4 smd rect (at 2.999999 2.4702) (size .9906 2.8956) (layers F.Cu F.Paste F.Mask))
  (pad 5 smd rect (at -5.350001 7.120201) (size 1.905 3.7084) (layers F.Cu F.Paste F.Mask))
  (pad 6 smd rect (at 5.350001 7.120201) (size 1.905 3.7084) (layers F.Cu F.Paste F.Mask))
  (pad S_1_H1 np_thru_hole circle (at -4.691888 3.7202) (size .889 .889) (drill .889) (layers *.Cu *.Mask))
  (pad 8 np_thru_hole circle (at 5.2 3.7202) (size .889 .889) (drill .889) (layers *.Cu *.Mask))
  (pad S_1_H2 np_thru_hole circle (at -5.707888 3.7202) (size .889 .889) (drill .889) (layers *.Cu *.Mask))
)
