(module IND_XAL6060-103MEB_COC (layer F.Cu)
  (fp_text reference REF** (at 0 0) (layer F.SilkS)
    (effects (font (size 1 1) (thickness .15)))
  )
  (fp_text value IND_XAL6060-103MEB_COC (at 0 0) (layer F.SilkS)
    (effects (font (size 1 1) (thickness .15)))
  )
  (fp_text user "Copyright 2021 Accelerated Designs. All rights reserved." (at 0 0) (layer Cmts.User)
    (effects (font (size .127 .127) (thickness .002)))
  )
  (fp_text user "*" (at 0 0) (layer F.SilkS)
    (effects (font (size 1 1) (thickness .15)))
  )
  (fp_text user "*" (at 0 0) (layer F.Fab)
    (effects (font (size 1 1) (thickness .15)))
  )
  (fp_text user "0in/0mm" (at -5.0927 0) (layer Dwgs.User)
    (effects (font (size 1 1) (thickness .15)))
  )
  (fp_text user "0.197in/5.004mm" (at 5.0927 0) (layer Dwgs.User)
    (effects (font (size 1 1) (thickness .15)))
  )
  (fp_text user "0.161in/4.089mm" (at 0 -5.7912) (layer Dwgs.User)
    (effects (font (size 1 1) (thickness .15)))
  )
  (fp_text user "0.051in/1.295mm" (at -2.0447 5.1562) (layer Dwgs.User)
    (effects (font (size 1 1) (thickness .15)))
  )
  (fp_line (start -3.4036 3.5052) (end 3.4036 3.5052) (layer F.SilkS) (width .12))
  (fp_line (start 3.4036 3.5052) (end 3.4036 -3.5052) (layer F.SilkS) (width .12))
  (fp_line (start 3.4036 -3.5052) (end -3.4036 -3.5052) (layer F.SilkS) (width .12))
  (fp_line (start -3.4036 -3.5052) (end -3.4036 3.5052) (layer F.SilkS) (width .12))
  (fp_line (start -3.2766 3.3782) (end 3.2766 3.3782) (layer F.Fab) (width .1))
  (fp_line (start 3.2766 3.3782) (end 3.2766 -3.3782) (layer F.Fab) (width .1))
  (fp_line (start 3.2766 -3.3782) (end -3.2766 -3.3782) (layer F.Fab) (width .1))
  (fp_line (start -3.2766 -3.3782) (end -3.2766 3.3782) (layer F.Fab) (width .1))
  (fp_line (start -3.5306 2.7559) (end -3.5306 -2.7559) (layer F.CrtYd) (width .05))
  (fp_line (start -3.5306 -2.7559) (end -3.5306 -2.7559) (layer F.CrtYd) (width .05))
  (fp_line (start -3.5306 -2.7559) (end -3.5306 -3.6322) (layer F.CrtYd) (width .05))
  (fp_line (start -3.5306 -3.6322) (end 3.5306 -3.6322) (layer F.CrtYd) (width .05))
  (fp_line (start 3.5306 -3.6322) (end 3.5306 -2.7559) (layer F.CrtYd) (width .05))
  (fp_line (start 3.5306 -2.7559) (end 3.5306 -2.7559) (layer F.CrtYd) (width .05))
  (fp_line (start 3.5306 -2.7559) (end 3.5306 2.7559) (layer F.CrtYd) (width .05))
  (fp_line (start 3.5306 2.7559) (end 3.5306 2.7559) (layer F.CrtYd) (width .05))
  (fp_line (start 3.5306 2.7559) (end 3.5306 3.6322) (layer F.CrtYd) (width .05))
  (fp_line (start 3.5306 3.6322) (end -3.5306 3.6322) (layer F.CrtYd) (width .05))
  (fp_line (start -3.5306 3.6322) (end -3.5306 2.7559) (layer F.CrtYd) (width .05))
  (fp_line (start -3.5306 2.7559) (end -3.5306 2.7559) (layer F.CrtYd) (width .05))
  (fp_arc (start 0 -3.3782) (end .3048 -3.3782) (angle 180)(layer F.Fab) (width .1))
  (fp_circle (center -1.397 0) (end -1.3208 0) (layer F.Fab) (width .1))
  (pad 1 smd rect (at -2.0447 0) (size 1.2954 5.0038) (layers F.Cu F.Paste F.Mask))
  (pad 2 smd rect (at 2.0447 0) (size 1.2954 5.0038) (layers F.Cu F.Paste F.Mask))
)
