ISO-10303-21;
HEADER;
FILE_DESCRIPTION(('STEP AP214'),'1');
FILE_NAME('CDBA-HF','2021-06-23T11:40:13',(''),(''),'','','');
FILE_SCHEMA(('AUTOMOTIVE_DESIGN'));
ENDSEC;
DATA;
#1=SHAPE_DEFINITION_REPRESENTATION(#2,#3);
#2=PRODUCT_DEFINITION_SHAPE('',$,#4);
#3=SHAPE_REPRESENTATION('',(#71,#368,#1196,#1769,#19),#11);
#4=PRODUCT_DEFINITION('design','example product_definition',#6,#5);
#5=PRODUCT_DEFINITION_CONTEXT('3D Mechanical Parts',#10,'design');
#6=PRODUCT_DEFINITION_FORMATION('1.0','first version',#8);
#7=APPLICATION_PROTOCOL_DEFINITION('international standard','automotive_design',2003,#10);
#8=PRODUCT('product','part','',(#9));
#9=PRODUCT_CONTEXT('3D Mechanical Parts',#10,'mechanical');
#10=APPLICATION_CONTEXT('Core Data for Automotive Mechanical Design Process');
#11=(GEOMETRIC_REPRESENTATION_CONTEXT(3) GLOBAL_UNCERTAINTY_ASSIGNED_CONTEXT((#12)) GLOBAL_UNIT_ASSIGNED_CONTEXT((#13,#14,#18)) REPRESENTATION_CONTEXT('ID1','3D'));
#12=UNCERTAINTY_MEASURE_WITH_UNIT(LENGTH_MEASURE(1.E-005),#13,'DISTANCE_ACCURACY_VALUE','Maximum model space distance between geometric entities at asserted connectivities');
#13=(LENGTH_UNIT() NAMED_UNIT(*) SI_UNIT(.MILLI.,.METRE.));
#14=(CONVERSION_BASED_UNIT('degree',#16) NAMED_UNIT(#15) PLANE_ANGLE_UNIT());
#15=DIMENSIONAL_EXPONENTS(0.,0.,0.,0.,0.,0.,0.);
#16=MEASURE_WITH_UNIT(PLANE_ANGLE_MEASURE(0.01745329252),#17);
#17=(NAMED_UNIT(*) PLANE_ANGLE_UNIT() SI_UNIT($,.RADIAN.));
#18=(NAMED_UNIT(*) SI_UNIT($,.STERADIAN.) SOLID_ANGLE_UNIT());
#19=AXIS2_PLACEMENT_3D('',#20,#21,#22);
#20=CARTESIAN_POINT('',(0.0,0.0,0.0));
#21=DIRECTION('',(0.0,0.0,1.0));
#22=DIRECTION('',(1.0,0.0,0.0));
#25=MECHANICAL_DESIGN_GEOMETRIC_PRESENTATION_REPRESENTATION($,(#73,#122,#171,#220,#269,#318,#370,#419,#468,#517,#566,#615,#664,#733,#782,#851,#900,#949,#998,#1047,#1096,#1145,#1198,#1247,#1296,#1345,#1394,#1443,#1492,#1541,#1590,#1679,#1771,#1820,#1869,#1918,#1967,#2016,#2065,#2114,#2163,#2252),#11);
#26=PRODUCT_CATEGORY_RELATIONSHIP('','',#27,#28);
#27=PRODUCT_CATEGORY('part','');
#28=PRODUCT_RELATED_PRODUCT_CATEGORY('','',(#8));
#34=PRESENTATION_STYLE_ASSIGNMENT((#35,#40));
#35=SURFACE_STYLE_USAGE(.BOTH.,#36);
#36=SURFACE_SIDE_STYLE('',(#37));
#37=SURFACE_STYLE_FILL_AREA(#38);
#38=FILL_AREA_STYLE('',(#39));
#39=FILL_AREA_STYLE_COLOUR('',#41);
#40=CURVE_STYLE('',#42,POSITIVE_LENGTH_MEASURE(0.1),#41);
#41=COLOUR_RGB('Aluminum',0.725,0.725,0.725);
#42=DRAUGHTING_PRE_DEFINED_CURVE_FONT('continuous');
#43=PRESENTATION_STYLE_ASSIGNMENT((#44,#49));
#44=SURFACE_STYLE_USAGE(.BOTH.,#45);
#45=SURFACE_SIDE_STYLE('',(#46));
#46=SURFACE_STYLE_FILL_AREA(#47);
#47=FILL_AREA_STYLE('',(#48));
#48=FILL_AREA_STYLE_COLOUR('',#50);
#49=CURVE_STYLE('',#51,POSITIVE_LENGTH_MEASURE(0.1),#50);
#50=COLOUR_RGB('Tan',0.784,0.686,0.51);
#51=DRAUGHTING_PRE_DEFINED_CURVE_FONT('continuous');
#52=PRESENTATION_STYLE_ASSIGNMENT((#53,#58));
#53=SURFACE_STYLE_USAGE(.BOTH.,#54);
#54=SURFACE_SIDE_STYLE('',(#55));
#55=SURFACE_STYLE_FILL_AREA(#56);
#56=FILL_AREA_STYLE('',(#57));
#57=FILL_AREA_STYLE_COLOUR('',#59);
#58=CURVE_STYLE('',#60,POSITIVE_LENGTH_MEASURE(0.1),#59);
#59=COLOUR_RGB('Pin1Tant',0.459,0.345,0.176);
#60=DRAUGHTING_PRE_DEFINED_CURVE_FONT('continuous');
#61=PRESENTATION_STYLE_ASSIGNMENT((#62,#67));
#62=SURFACE_STYLE_USAGE(.BOTH.,#63);
#63=SURFACE_SIDE_STYLE('',(#64));
#64=SURFACE_STYLE_FILL_AREA(#65);
#65=FILL_AREA_STYLE('',(#66));
#66=FILL_AREA_STYLE_COLOUR('',#68);
#67=CURVE_STYLE('',#69,POSITIVE_LENGTH_MEASURE(0.1),#68);
#68=COLOUR_RGB('HeatTab',0.588,0.588,0.588);
#69=DRAUGHTING_PRE_DEFINED_CURVE_FONT('continuous');
#71=MANIFOLD_SOLID_BREP($,#72);
#72=CLOSED_SHELL('',(#74,#123,#172,#221,#270,#319));
#73=STYLED_ITEM('',(#52),#74);
#74=ADVANCED_FACE('',(#80),#75,.T.);
#75=PLANE('',#76);
#76=AXIS2_PLACEMENT_3D('',#77,#78,#79);
#77=CARTESIAN_POINT('',(-2.396,-1.348,2.489));
#78=DIRECTION('',(0.0,-1.0,0.0));
#79=DIRECTION('',(0.,0.,1.));
#80=FACE_OUTER_BOUND('',#81,.T.);
#81=EDGE_LOOP('',(#82,#92,#102,#112));
#85=CARTESIAN_POINT('',(-1.398,-1.348,2.489));
#84=VERTEX_POINT('',#85);
#87=CARTESIAN_POINT('',(-2.396,-1.348,2.489));
#86=VERTEX_POINT('',#87);
#83=EDGE_CURVE('',#84,#86,#88,.T.);
#88=LINE('',#85,#90);
#90=VECTOR('',#91,0.99822);
#91=DIRECTION('',(-1.0,0.0,0.0));
#82=ORIENTED_EDGE('',*,*,#83,.F.);
#95=CARTESIAN_POINT('',(-1.398,-1.348,2.54));
#94=VERTEX_POINT('',#95);
#93=EDGE_CURVE('',#94,#84,#98,.T.);
#98=LINE('',#95,#100);
#100=VECTOR('',#101,0.0508);
#101=DIRECTION('',(0.0,0.0,-1.0));
#92=ORIENTED_EDGE('',*,*,#93,.F.);
#105=CARTESIAN_POINT('',(-2.396,-1.348,2.54));
#104=VERTEX_POINT('',#105);
#103=EDGE_CURVE('',#104,#94,#108,.T.);
#108=LINE('',#105,#110);
#110=VECTOR('',#111,0.99822);
#111=DIRECTION('',(1.0,0.0,0.0));
#102=ORIENTED_EDGE('',*,*,#103,.F.);
#113=EDGE_CURVE('',#86,#104,#118,.T.);
#118=LINE('',#87,#120);
#120=VECTOR('',#121,0.0508);
#121=DIRECTION('',(0.0,0.0,1.0));
#112=ORIENTED_EDGE('',*,*,#113,.F.);
#122=STYLED_ITEM('',(#52),#123);
#123=ADVANCED_FACE('',(#129),#124,.T.);
#124=PLANE('',#125);
#125=AXIS2_PLACEMENT_3D('',#126,#127,#128);
#126=CARTESIAN_POINT('',(-1.398,-1.348,2.489));
#127=DIRECTION('',(1.0,0.0,0.0));
#128=DIRECTION('',(0.,0.,1.));
#129=FACE_OUTER_BOUND('',#130,.T.);
#130=EDGE_LOOP('',(#131,#141,#151,#161));
#134=CARTESIAN_POINT('',(-1.398,1.348,2.489));
#133=VERTEX_POINT('',#134);
#132=EDGE_CURVE('',#133,#84,#137,.T.);
#137=LINE('',#134,#139);
#139=VECTOR('',#140,2.695956);
#140=DIRECTION('',(0.0,-1.0,0.0));
#131=ORIENTED_EDGE('',*,*,#132,.F.);
#144=CARTESIAN_POINT('',(-1.398,1.348,2.54));
#143=VERTEX_POINT('',#144);
#142=EDGE_CURVE('',#143,#133,#147,.T.);
#147=LINE('',#144,#149);
#149=VECTOR('',#150,0.0508);
#150=DIRECTION('',(0.0,0.0,-1.0));
#141=ORIENTED_EDGE('',*,*,#142,.F.);
#152=EDGE_CURVE('',#94,#143,#157,.T.);
#157=LINE('',#95,#159);
#159=VECTOR('',#160,2.695956);
#160=DIRECTION('',(0.0,1.0,0.0));
#151=ORIENTED_EDGE('',*,*,#152,.F.);
#161=ORIENTED_EDGE('',*,*,#93,.T.);
#171=STYLED_ITEM('',(#52),#172);
#172=ADVANCED_FACE('',(#178),#173,.T.);
#173=PLANE('',#174);
#174=AXIS2_PLACEMENT_3D('',#175,#176,#177);
#175=CARTESIAN_POINT('',(-1.398,1.348,2.489));
#176=DIRECTION('',(0.0,1.0,0.0));
#177=DIRECTION('',(0.,0.,1.));
#178=FACE_OUTER_BOUND('',#179,.T.);
#179=EDGE_LOOP('',(#180,#190,#200,#210));
#183=CARTESIAN_POINT('',(-2.396,1.348,2.489));
#182=VERTEX_POINT('',#183);
#181=EDGE_CURVE('',#182,#133,#186,.T.);
#186=LINE('',#183,#188);
#188=VECTOR('',#189,0.99822);
#189=DIRECTION('',(1.0,0.0,0.0));
#180=ORIENTED_EDGE('',*,*,#181,.F.);
#193=CARTESIAN_POINT('',(-2.396,1.348,2.54));
#192=VERTEX_POINT('',#193);
#191=EDGE_CURVE('',#192,#182,#196,.T.);
#196=LINE('',#193,#198);
#198=VECTOR('',#199,0.0508);
#199=DIRECTION('',(0.0,0.0,-1.0));
#190=ORIENTED_EDGE('',*,*,#191,.F.);
#201=EDGE_CURVE('',#143,#192,#206,.T.);
#206=LINE('',#144,#208);
#208=VECTOR('',#209,0.99822);
#209=DIRECTION('',(-1.0,0.0,0.0));
#200=ORIENTED_EDGE('',*,*,#201,.F.);
#210=ORIENTED_EDGE('',*,*,#142,.T.);
#220=STYLED_ITEM('',(#52),#221);
#221=ADVANCED_FACE('',(#227),#222,.T.);
#222=PLANE('',#223);
#223=AXIS2_PLACEMENT_3D('',#224,#225,#226);
#224=CARTESIAN_POINT('',(-2.396,1.348,2.489));
#225=DIRECTION('',(-1.0,0.0,0.0));
#226=DIRECTION('',(0.,0.,1.));
#227=FACE_OUTER_BOUND('',#228,.T.);
#228=EDGE_LOOP('',(#229,#239,#249,#259));
#230=EDGE_CURVE('',#86,#182,#235,.T.);
#235=LINE('',#87,#237);
#237=VECTOR('',#238,2.695956);
#238=DIRECTION('',(0.0,1.0,0.0));
#229=ORIENTED_EDGE('',*,*,#230,.F.);
#239=ORIENTED_EDGE('',*,*,#113,.T.);
#250=EDGE_CURVE('',#192,#104,#255,.T.);
#255=LINE('',#193,#257);
#257=VECTOR('',#258,2.695956);
#258=DIRECTION('',(0.0,-1.0,0.0));
#249=ORIENTED_EDGE('',*,*,#250,.F.);
#259=ORIENTED_EDGE('',*,*,#191,.T.);
#269=STYLED_ITEM('',(#52),#270);
#270=ADVANCED_FACE('',(#276),#271,.T.);
#271=PLANE('',#272);
#272=AXIS2_PLACEMENT_3D('',#273,#274,#275);
#273=CARTESIAN_POINT('',(-2.396,1.348,2.489));
#274=DIRECTION('',(0.0,0.0,-1.0));
#275=DIRECTION('',(0.,1.,0.));
#276=FACE_OUTER_BOUND('',#277,.T.);
#277=EDGE_LOOP('',(#278,#288,#298,#308));
#278=ORIENTED_EDGE('',*,*,#181,.T.);
#288=ORIENTED_EDGE('',*,*,#132,.T.);
#298=ORIENTED_EDGE('',*,*,#83,.T.);
#308=ORIENTED_EDGE('',*,*,#230,.T.);
#318=STYLED_ITEM('',(#52),#319);
#319=ADVANCED_FACE('',(#325),#320,.T.);
#320=PLANE('',#321);
#321=AXIS2_PLACEMENT_3D('',#322,#323,#324);
#322=CARTESIAN_POINT('',(-2.396,-1.348,2.54));
#323=DIRECTION('',(0.0,0.0,1.0));
#324=DIRECTION('',(0.,1.,0.));
#325=FACE_OUTER_BOUND('',#326,.T.);
#326=EDGE_LOOP('',(#327,#337,#347,#357));
#327=ORIENTED_EDGE('',*,*,#103,.T.);
#337=ORIENTED_EDGE('',*,*,#152,.T.);
#347=ORIENTED_EDGE('',*,*,#201,.T.);
#357=ORIENTED_EDGE('',*,*,#250,.T.);
#368=MANIFOLD_SOLID_BREP($,#369);
#369=CLOSED_SHELL('',(#371,#420,#469,#518,#567,#616,#665,#734,#783,#852,#901,#950,#999,#1048,#1097,#1146));
#370=STYLED_ITEM('',(#43),#371);
#371=ADVANCED_FACE('',(#377),#372,.T.);
#372=PLANE('',#373);
#373=AXIS2_PLACEMENT_3D('',#374,#375,#376);
#374=CARTESIAN_POINT('',(-2.496,-1.448,2.489));
#375=DIRECTION('',(0.0,0.0,1.0));
#376=DIRECTION('',(0.,1.,0.));
#377=FACE_OUTER_BOUND('',#378,.T.);
#378=EDGE_LOOP('',(#379,#389,#399,#409));
#382=CARTESIAN_POINT('',(2.496,-1.448,2.489));
#381=VERTEX_POINT('',#382);
#384=CARTESIAN_POINT('',(-2.496,-1.448,2.489));
#383=VERTEX_POINT('',#384);
#380=EDGE_CURVE('',#381,#383,#385,.T.);
#385=LINE('',#382,#387);
#387=VECTOR('',#388,4.9911);
#388=DIRECTION('',(-1.0,0.0,0.0));
#379=ORIENTED_EDGE('',*,*,#380,.F.);
#392=CARTESIAN_POINT('',(2.496,1.448,2.489));
#391=VERTEX_POINT('',#392);
#390=EDGE_CURVE('',#391,#381,#395,.T.);
#395=LINE('',#392,#397);
#397=VECTOR('',#398,2.8956);
#398=DIRECTION('',(0.0,-1.0,0.0));
#389=ORIENTED_EDGE('',*,*,#390,.F.);
#402=CARTESIAN_POINT('',(-2.496,1.448,2.489));
#401=VERTEX_POINT('',#402);
#400=EDGE_CURVE('',#401,#391,#405,.T.);
#405=LINE('',#402,#407);
#407=VECTOR('',#408,4.9911);
#408=DIRECTION('',(1.0,0.0,0.0));
#399=ORIENTED_EDGE('',*,*,#400,.F.);
#410=EDGE_CURVE('',#383,#401,#415,.T.);
#415=LINE('',#384,#417);
#417=VECTOR('',#418,2.8956);
#418=DIRECTION('',(0.0,1.0,0.0));
#409=ORIENTED_EDGE('',*,*,#410,.F.);
#419=STYLED_ITEM('',(#43),#420);
#420=ADVANCED_FACE('',(#426),#421,.T.);
#421=PLANE('',#422);
#422=AXIS2_PLACEMENT_3D('',#423,#424,#425);
#423=CARTESIAN_POINT('',(2.496,-1.448,1.105));
#424=DIRECTION('',(1.0,0.0,0.0));
#425=DIRECTION('',(0.,0.,1.));
#426=FACE_OUTER_BOUND('',#427,.T.);
#427=EDGE_LOOP('',(#428,#438,#448,#458));
#431=CARTESIAN_POINT('',(2.496,1.448,1.105));
#430=VERTEX_POINT('',#431);
#433=CARTESIAN_POINT('',(2.496,-1.448,1.105));
#432=VERTEX_POINT('',#433);
#429=EDGE_CURVE('',#430,#432,#434,.T.);
#434=LINE('',#431,#436);
#436=VECTOR('',#437,2.8956);
#437=DIRECTION('',(0.0,-1.0,0.0));
#428=ORIENTED_EDGE('',*,*,#429,.F.);
#439=EDGE_CURVE('',#391,#430,#444,.T.);
#444=LINE('',#392,#446);
#446=VECTOR('',#447,1.3843);
#447=DIRECTION('',(0.0,0.0,-1.0));
#438=ORIENTED_EDGE('',*,*,#439,.F.);
#448=ORIENTED_EDGE('',*,*,#390,.T.);
#459=EDGE_CURVE('',#432,#381,#464,.T.);
#464=LINE('',#433,#466);
#466=VECTOR('',#467,1.3843);
#467=DIRECTION('',(0.0,0.0,1.0));
#458=ORIENTED_EDGE('',*,*,#459,.F.);
#468=STYLED_ITEM('',(#43),#469);
#469=ADVANCED_FACE('',(#475),#470,.T.);
#470=PLANE('',#471);
#471=AXIS2_PLACEMENT_3D('',#472,#473,#474);
#472=CARTESIAN_POINT('',(2.496,1.448,1.105));
#473=DIRECTION('',(0.0,1.0,0.0));
#474=DIRECTION('',(0.,0.,1.));
#475=FACE_OUTER_BOUND('',#476,.T.);
#476=EDGE_LOOP('',(#477,#487,#497,#507));
#480=CARTESIAN_POINT('',(-2.496,1.448,1.105));
#479=VERTEX_POINT('',#480);
#478=EDGE_CURVE('',#479,#430,#483,.T.);
#483=LINE('',#480,#485);
#485=VECTOR('',#486,4.9911);
#486=DIRECTION('',(1.0,0.0,0.0));
#477=ORIENTED_EDGE('',*,*,#478,.F.);
#488=EDGE_CURVE('',#401,#479,#493,.T.);
#493=LINE('',#402,#495);
#495=VECTOR('',#496,1.3843);
#496=DIRECTION('',(0.0,0.0,-1.0));
#487=ORIENTED_EDGE('',*,*,#488,.F.);
#497=ORIENTED_EDGE('',*,*,#400,.T.);
#507=ORIENTED_EDGE('',*,*,#439,.T.);
#517=STYLED_ITEM('',(#43),#518);
#518=ADVANCED_FACE('',(#524),#519,.T.);
#519=PLANE('',#520);
#520=AXIS2_PLACEMENT_3D('',#521,#522,#523);
#521=CARTESIAN_POINT('',(-2.496,1.448,1.105));
#522=DIRECTION('',(-1.0,0.0,0.0));
#523=DIRECTION('',(0.,0.,1.));
#524=FACE_OUTER_BOUND('',#525,.T.);
#525=EDGE_LOOP('',(#526,#536,#546,#556));
#529=CARTESIAN_POINT('',(-2.496,-1.448,1.105));
#528=VERTEX_POINT('',#529);
#527=EDGE_CURVE('',#528,#479,#532,.T.);
#532=LINE('',#529,#534);
#534=VECTOR('',#535,2.8956);
#535=DIRECTION('',(0.0,1.0,0.0));
#526=ORIENTED_EDGE('',*,*,#527,.F.);
#537=EDGE_CURVE('',#383,#528,#542,.T.);
#542=LINE('',#384,#544);
#544=VECTOR('',#545,1.3843);
#545=DIRECTION('',(0.0,0.0,-1.0));
#536=ORIENTED_EDGE('',*,*,#537,.F.);
#546=ORIENTED_EDGE('',*,*,#410,.T.);
#556=ORIENTED_EDGE('',*,*,#488,.T.);
#566=STYLED_ITEM('',(#43),#567);
#567=ADVANCED_FACE('',(#573),#568,.T.);
#568=PLANE('',#569);
#569=AXIS2_PLACEMENT_3D('',#570,#571,#572);
#570=CARTESIAN_POINT('',(-2.496,-1.448,1.105));
#571=DIRECTION('',(0.0,-1.0,0.0));
#572=DIRECTION('',(0.,0.,1.));
#573=FACE_OUTER_BOUND('',#574,.T.);
#574=EDGE_LOOP('',(#575,#585,#595,#605));
#576=EDGE_CURVE('',#432,#528,#581,.T.);
#581=LINE('',#433,#583);
#583=VECTOR('',#584,4.9911);
#584=DIRECTION('',(-1.0,0.0,0.0));
#575=ORIENTED_EDGE('',*,*,#576,.F.);
#585=ORIENTED_EDGE('',*,*,#459,.T.);
#595=ORIENTED_EDGE('',*,*,#380,.T.);
#605=ORIENTED_EDGE('',*,*,#537,.T.);
#615=STYLED_ITEM('',(#43),#616);
#616=ADVANCED_FACE('',(#622),#617,.T.);
#617=PLANE('',#618);
#618=AXIS2_PLACEMENT_3D('',#619,#620,#621);
#619=CARTESIAN_POINT('',(2.351,-1.304,0.178));
#620=DIRECTION('',(0.988,0.0,-0.154));
#621=DIRECTION('',(0.,0.,1.));
#622=FACE_OUTER_BOUND('',#623,.T.);
#623=EDGE_LOOP('',(#624,#634,#644,#654));
#627=CARTESIAN_POINT('',(2.351,1.304,0.178));
#626=VERTEX_POINT('',#627);
#629=CARTESIAN_POINT('',(2.351,-1.304,0.178));
#628=VERTEX_POINT('',#629);
#625=EDGE_CURVE('',#626,#628,#630,.T.);
#630=LINE('',#627,#632);
#632=VECTOR('',#633,2.60716322043234);
#633=DIRECTION('',(0.0,-1.0,0.0));
#624=ORIENTED_EDGE('',*,*,#625,.F.);
#635=EDGE_CURVE('',#430,#626,#640,.T.);
#640=LINE('',#431,#642);
#642=VECTOR('',#643,0.949269349501859);
#643=DIRECTION('',(-0.152,-0.152,-0.977));
#634=ORIENTED_EDGE('',*,*,#635,.F.);
#644=ORIENTED_EDGE('',*,*,#429,.T.);
#655=EDGE_CURVE('',#628,#432,#660,.T.);
#660=LINE('',#629,#662);
#662=VECTOR('',#663,0.949269349501859);
#663=DIRECTION('',(0.152,-0.152,0.977));
#654=ORIENTED_EDGE('',*,*,#655,.F.);
#664=STYLED_ITEM('',(#43),#665);
#665=ADVANCED_FACE('',(#671),#666,.T.);
#666=PLANE('',#667);
#667=AXIS2_PLACEMENT_3D('',#668,#669,#670);
#668=CARTESIAN_POINT('',(2.351,1.304,0.178));
#669=DIRECTION('',(0.0,0.988,-0.154));
#670=DIRECTION('',(0.,0.,1.));
#671=FACE_OUTER_BOUND('',#672,.T.);
#672=EDGE_LOOP('',(#673,#683,#693,#703,#713,#723));
#676=CARTESIAN_POINT('',(0.994,1.304,0.178));
#675=VERTEX_POINT('',#676);
#674=EDGE_CURVE('',#675,#626,#679,.T.);
#679=LINE('',#676,#681);
#681=VECTOR('',#682,1.35692161021617);
#682=DIRECTION('',(1.0,0.0,0.0));
#673=ORIENTED_EDGE('',*,*,#674,.F.);
#686=CARTESIAN_POINT('',(-0.994,1.304,0.178));
#685=VERTEX_POINT('',#686);
#684=EDGE_CURVE('',#685,#675,#689,.T.);
#689=LINE('',#686,#691);
#691=VECTOR('',#692,1.98882);
#692=DIRECTION('',(1.0,0.0,0.0));
#683=ORIENTED_EDGE('',*,*,#684,.F.);
#696=CARTESIAN_POINT('',(-2.351,1.304,0.178));
#695=VERTEX_POINT('',#696);
#694=EDGE_CURVE('',#695,#685,#699,.T.);
#699=LINE('',#696,#701);
#701=VECTOR('',#702,1.35692161021617);
#702=DIRECTION('',(1.0,0.0,0.0));
#693=ORIENTED_EDGE('',*,*,#694,.F.);
#704=EDGE_CURVE('',#479,#695,#709,.T.);
#709=LINE('',#480,#711);
#711=VECTOR('',#712,0.949269349501859);
#712=DIRECTION('',(0.152,-0.152,-0.977));
#703=ORIENTED_EDGE('',*,*,#704,.F.);
#713=ORIENTED_EDGE('',*,*,#478,.T.);
#723=ORIENTED_EDGE('',*,*,#635,.T.);
#733=STYLED_ITEM('',(#43),#734);
#734=ADVANCED_FACE('',(#740),#735,.T.);
#735=PLANE('',#736);
#736=AXIS2_PLACEMENT_3D('',#737,#738,#739);
#737=CARTESIAN_POINT('',(-2.351,1.304,0.178));
#738=DIRECTION('',(-0.988,0.0,-0.154));
#739=DIRECTION('',(0.,0.,1.));
#740=FACE_OUTER_BOUND('',#741,.T.);
#741=EDGE_LOOP('',(#742,#752,#762,#772));
#745=CARTESIAN_POINT('',(-2.351,-1.304,0.178));
#744=VERTEX_POINT('',#745);
#743=EDGE_CURVE('',#744,#695,#748,.T.);
#748=LINE('',#745,#750);
#750=VECTOR('',#751,2.60716322043234);
#751=DIRECTION('',(0.0,1.0,0.0));
#742=ORIENTED_EDGE('',*,*,#743,.F.);
#753=EDGE_CURVE('',#528,#744,#758,.T.);
#758=LINE('',#529,#760);
#760=VECTOR('',#761,0.949269349501859);
#761=DIRECTION('',(0.152,0.152,-0.977));
#752=ORIENTED_EDGE('',*,*,#753,.F.);
#762=ORIENTED_EDGE('',*,*,#527,.T.);
#772=ORIENTED_EDGE('',*,*,#704,.T.);
#782=STYLED_ITEM('',(#43),#783);
#783=ADVANCED_FACE('',(#789),#784,.T.);
#784=PLANE('',#785);
#785=AXIS2_PLACEMENT_3D('',#786,#787,#788);
#786=CARTESIAN_POINT('',(-2.351,-1.304,0.178));
#787=DIRECTION('',(0.0,-0.988,-0.154));
#788=DIRECTION('',(0.,0.,1.));
#789=FACE_OUTER_BOUND('',#790,.T.);
#790=EDGE_LOOP('',(#791,#801,#811,#821,#831,#841));
#794=CARTESIAN_POINT('',(-0.994,-1.304,0.178));
#793=VERTEX_POINT('',#794);
#792=EDGE_CURVE('',#793,#744,#797,.T.);
#797=LINE('',#794,#799);
#799=VECTOR('',#800,1.35692161021617);
#800=DIRECTION('',(-1.0,0.0,0.0));
#791=ORIENTED_EDGE('',*,*,#792,.F.);
#804=CARTESIAN_POINT('',(0.994,-1.304,0.178));
#803=VERTEX_POINT('',#804);
#802=EDGE_CURVE('',#803,#793,#807,.T.);
#807=LINE('',#804,#809);
#809=VECTOR('',#810,1.98882);
#810=DIRECTION('',(-1.0,0.0,0.0));
#801=ORIENTED_EDGE('',*,*,#802,.F.);
#812=EDGE_CURVE('',#628,#803,#817,.T.);
#817=LINE('',#629,#819);
#819=VECTOR('',#820,1.35692161021617);
#820=DIRECTION('',(-1.0,0.0,0.0));
#811=ORIENTED_EDGE('',*,*,#812,.F.);
#821=ORIENTED_EDGE('',*,*,#655,.T.);
#831=ORIENTED_EDGE('',*,*,#576,.T.);
#841=ORIENTED_EDGE('',*,*,#753,.T.);
#851=STYLED_ITEM('',(#43),#852);
#852=ADVANCED_FACE('',(#858),#853,.T.);
#853=PLANE('',#854);
#854=AXIS2_PLACEMENT_3D('',#855,#856,#857);
#855=CARTESIAN_POINT('',(0.994,-1.304,0.0));
#856=DIRECTION('',(1.0,0.0,0.0));
#857=DIRECTION('',(0.,0.,1.));
#858=FACE_OUTER_BOUND('',#859,.T.);
#859=EDGE_LOOP('',(#860,#870,#880,#890));
#863=CARTESIAN_POINT('',(0.994,1.304,0.0));
#862=VERTEX_POINT('',#863);
#865=CARTESIAN_POINT('',(0.994,-1.304,0.0));
#864=VERTEX_POINT('',#865);
#861=EDGE_CURVE('',#862,#864,#866,.T.);
#866=LINE('',#863,#868);
#868=VECTOR('',#869,2.60716322043234);
#869=DIRECTION('',(0.0,-1.0,0.0));
#860=ORIENTED_EDGE('',*,*,#861,.F.);
#871=EDGE_CURVE('',#675,#862,#876,.T.);
#876=LINE('',#676,#878);
#878=VECTOR('',#879,0.1778);
#879=DIRECTION('',(0.0,0.0,-1.0));
#870=ORIENTED_EDGE('',*,*,#871,.F.);
#881=EDGE_CURVE('',#803,#675,#886,.T.);
#886=LINE('',#804,#888);
#888=VECTOR('',#889,2.60716322043234);
#889=DIRECTION('',(0.0,1.0,0.0));
#880=ORIENTED_EDGE('',*,*,#881,.F.);
#891=EDGE_CURVE('',#864,#803,#896,.T.);
#896=LINE('',#865,#898);
#898=VECTOR('',#899,0.1778);
#899=DIRECTION('',(0.0,0.0,1.0));
#890=ORIENTED_EDGE('',*,*,#891,.F.);
#900=STYLED_ITEM('',(#43),#901);
#901=ADVANCED_FACE('',(#907),#902,.T.);
#902=PLANE('',#903);
#903=AXIS2_PLACEMENT_3D('',#904,#905,#906);
#904=CARTESIAN_POINT('',(-0.994,1.304,0.0));
#905=DIRECTION('',(-1.0,0.0,0.0));
#906=DIRECTION('',(0.,0.,1.));
#907=FACE_OUTER_BOUND('',#908,.T.);
#908=EDGE_LOOP('',(#909,#919,#929,#939));
#912=CARTESIAN_POINT('',(-0.994,-1.304,0.0));
#911=VERTEX_POINT('',#912);
#914=CARTESIAN_POINT('',(-0.994,1.304,0.0));
#913=VERTEX_POINT('',#914);
#910=EDGE_CURVE('',#911,#913,#915,.T.);
#915=LINE('',#912,#917);
#917=VECTOR('',#918,2.60716322043234);
#918=DIRECTION('',(0.0,1.0,0.0));
#909=ORIENTED_EDGE('',*,*,#910,.F.);
#920=EDGE_CURVE('',#793,#911,#925,.T.);
#925=LINE('',#794,#927);
#927=VECTOR('',#928,0.1778);
#928=DIRECTION('',(0.0,0.0,-1.0));
#919=ORIENTED_EDGE('',*,*,#920,.F.);
#930=EDGE_CURVE('',#685,#793,#935,.T.);
#935=LINE('',#686,#937);
#937=VECTOR('',#938,2.60716322043234);
#938=DIRECTION('',(0.0,-1.0,0.0));
#929=ORIENTED_EDGE('',*,*,#930,.F.);
#940=EDGE_CURVE('',#913,#685,#945,.T.);
#945=LINE('',#914,#947);
#947=VECTOR('',#948,0.1778);
#948=DIRECTION('',(0.0,0.0,1.0));
#939=ORIENTED_EDGE('',*,*,#940,.F.);
#949=STYLED_ITEM('',(#43),#950);
#950=ADVANCED_FACE('',(#956),#951,.T.);
#951=PLANE('',#952);
#952=AXIS2_PLACEMENT_3D('',#953,#954,#955);
#953=CARTESIAN_POINT('',(-0.994,1.304,0.0));
#954=DIRECTION('',(0.0,0.0,-1.0));
#955=DIRECTION('',(0.,1.,0.));
#956=FACE_OUTER_BOUND('',#957,.T.);
#957=EDGE_LOOP('',(#958,#968,#978,#988));
#959=EDGE_CURVE('',#862,#913,#964,.T.);
#964=LINE('',#863,#966);
#966=VECTOR('',#967,1.98882);
#967=DIRECTION('',(-1.0,0.0,0.0));
#958=ORIENTED_EDGE('',*,*,#959,.F.);
#968=ORIENTED_EDGE('',*,*,#861,.T.);
#979=EDGE_CURVE('',#911,#864,#984,.T.);
#984=LINE('',#912,#986);
#986=VECTOR('',#987,1.98882);
#987=DIRECTION('',(1.0,0.0,0.0));
#978=ORIENTED_EDGE('',*,*,#979,.F.);
#988=ORIENTED_EDGE('',*,*,#910,.T.);
#998=STYLED_ITEM('',(#43),#999);
#999=ADVANCED_FACE('',(#1005),#1000,.T.);
#1000=PLANE('',#1001);
#1001=AXIS2_PLACEMENT_3D('',#1002,#1003,#1004);
#1002=CARTESIAN_POINT('',(-2.351,1.304,0.178));
#1003=DIRECTION('',(0.0,0.0,-1.0));
#1004=DIRECTION('',(0.,1.,0.));
#1005=FACE_OUTER_BOUND('',#1006,.T.);
#1006=EDGE_LOOP('',(#1007,#1017,#1027,#1037));
#1007=ORIENTED_EDGE('',*,*,#694,.T.);
#1017=ORIENTED_EDGE('',*,*,#930,.T.);
#1027=ORIENTED_EDGE('',*,*,#792,.T.);
#1037=ORIENTED_EDGE('',*,*,#743,.T.);
#1047=STYLED_ITEM('',(#43),#1048);
#1048=ADVANCED_FACE('',(#1054),#1049,.T.);
#1049=PLANE('',#1050);
#1050=AXIS2_PLACEMENT_3D('',#1051,#1052,#1053);
#1051=CARTESIAN_POINT('',(0.994,1.304,0.178));
#1052=DIRECTION('',(0.0,0.0,-1.0));
#1053=DIRECTION('',(0.,1.,0.));
#1054=FACE_OUTER_BOUND('',#1055,.T.);
#1055=EDGE_LOOP('',(#1056,#1066,#1076,#1086));
#1056=ORIENTED_EDGE('',*,*,#674,.T.);
#1066=ORIENTED_EDGE('',*,*,#625,.T.);
#1076=ORIENTED_EDGE('',*,*,#812,.T.);
#1086=ORIENTED_EDGE('',*,*,#881,.T.);
#1096=STYLED_ITEM('',(#43),#1097);
#1097=ADVANCED_FACE('',(#1103),#1098,.T.);
#1098=PLANE('',#1099);
#1099=AXIS2_PLACEMENT_3D('',#1100,#1101,#1102);
#1100=CARTESIAN_POINT('',(-0.994,-1.304,0.0));
#1101=DIRECTION('',(0.0,-1.0,0.0));
#1102=DIRECTION('',(0.,0.,1.));
#1103=FACE_OUTER_BOUND('',#1104,.T.);
#1104=EDGE_LOOP('',(#1105,#1115,#1125,#1135));
#1105=ORIENTED_EDGE('',*,*,#979,.T.);
#1115=ORIENTED_EDGE('',*,*,#891,.T.);
#1125=ORIENTED_EDGE('',*,*,#802,.T.);
#1135=ORIENTED_EDGE('',*,*,#920,.T.);
#1145=STYLED_ITEM('',(#43),#1146);
#1146=ADVANCED_FACE('',(#1152),#1147,.T.);
#1147=PLANE('',#1148);
#1148=AXIS2_PLACEMENT_3D('',#1149,#1150,#1151);
#1149=CARTESIAN_POINT('',(0.994,1.304,0.0));
#1150=DIRECTION('',(0.0,1.0,0.0));
#1151=DIRECTION('',(0.,0.,1.));
#1152=FACE_OUTER_BOUND('',#1153,.T.);
#1153=EDGE_LOOP('',(#1154,#1164,#1174,#1184));
#1154=ORIENTED_EDGE('',*,*,#959,.T.);
#1164=ORIENTED_EDGE('',*,*,#940,.T.);
#1174=ORIENTED_EDGE('',*,*,#684,.T.);
#1184=ORIENTED_EDGE('',*,*,#871,.T.);
#1196=MANIFOLD_SOLID_BREP($,#1197);
#1197=CLOSED_SHELL('',(#1199,#1248,#1297,#1346,#1395,#1444,#1493,#1542,#1591,#1680));
#1198=STYLED_ITEM('',(#34),#1199);
#1199=ADVANCED_FACE('',(#1205),#1200,.T.);
#1200=PLANE('',#1201);
#1201=AXIS2_PLACEMENT_3D('',#1202,#1203,#1204);
#1202=CARTESIAN_POINT('',(2.654,0.851,1.308));
#1203=DIRECTION('',(0.0,0.0,1.0));
#1204=DIRECTION('',(0.,1.,0.));
#1205=FACE_OUTER_BOUND('',#1206,.T.);
#1206=EDGE_LOOP('',(#1207,#1217,#1227,#1237));
#1210=CARTESIAN_POINT('',(2.496,0.851,1.308));
#1209=VERTEX_POINT('',#1210);
#1212=CARTESIAN_POINT('',(2.654,0.851,1.308));
#1211=VERTEX_POINT('',#1212);
#1208=EDGE_CURVE('',#1209,#1211,#1213,.T.);
#1213=LINE('',#1210,#1215);
#1215=VECTOR('',#1216,0.15875);
#1216=DIRECTION('',(1.0,0.0,0.0));
#1207=ORIENTED_EDGE('',*,*,#1208,.F.);
#1220=CARTESIAN_POINT('',(2.496,-0.851,1.308));
#1219=VERTEX_POINT('',#1220);
#1218=EDGE_CURVE('',#1219,#1209,#1223,.T.);
#1223=LINE('',#1220,#1225);
#1225=VECTOR('',#1226,1.7018);
#1226=DIRECTION('',(0.0,1.0,0.0));
#1217=ORIENTED_EDGE('',*,*,#1218,.F.);
#1230=CARTESIAN_POINT('',(2.654,-0.851,1.308));
#1229=VERTEX_POINT('',#1230);
#1228=EDGE_CURVE('',#1229,#1219,#1233,.T.);
#1233=LINE('',#1230,#1235);
#1235=VECTOR('',#1236,0.15875);
#1236=DIRECTION('',(-1.0,0.0,0.0));
#1227=ORIENTED_EDGE('',*,*,#1228,.F.);
#1238=EDGE_CURVE('',#1211,#1229,#1243,.T.);
#1243=LINE('',#1212,#1245);
#1245=VECTOR('',#1246,1.7018);
#1246=DIRECTION('',(0.0,-1.0,0.0));
#1237=ORIENTED_EDGE('',*,*,#1238,.F.);
#1247=STYLED_ITEM('',(#34),#1248);
#1248=ADVANCED_FACE('',(#1254),#1249,.T.);
#1249=PLANE('',#1250);
#1250=AXIS2_PLACEMENT_3D('',#1251,#1252,#1253);
#1251=CARTESIAN_POINT('',(2.527,0.851,0.127));
#1252=DIRECTION('',(0.0,0.0,1.0));
#1253=DIRECTION('',(0.,1.,0.));
#1254=FACE_OUTER_BOUND('',#1255,.T.);
#1255=EDGE_LOOP('',(#1256,#1266,#1276,#1286));
#1259=CARTESIAN_POINT('',(1.105,0.851,0.127));
#1258=VERTEX_POINT('',#1259);
#1261=CARTESIAN_POINT('',(2.527,0.851,0.127));
#1260=VERTEX_POINT('',#1261);
#1257=EDGE_CURVE('',#1258,#1260,#1262,.T.);
#1262=LINE('',#1259,#1264);
#1264=VECTOR('',#1265,1.4224);
#1265=DIRECTION('',(1.0,0.0,0.0));
#1256=ORIENTED_EDGE('',*,*,#1257,.F.);
#1269=CARTESIAN_POINT('',(1.105,-0.851,0.127));
#1268=VERTEX_POINT('',#1269);
#1267=EDGE_CURVE('',#1268,#1258,#1272,.T.);
#1272=LINE('',#1269,#1274);
#1274=VECTOR('',#1275,1.7018);
#1275=DIRECTION('',(0.0,1.0,0.0));
#1266=ORIENTED_EDGE('',*,*,#1267,.F.);
#1279=CARTESIAN_POINT('',(2.527,-0.851,0.127));
#1278=VERTEX_POINT('',#1279);
#1277=EDGE_CURVE('',#1278,#1268,#1282,.T.);
#1282=LINE('',#1279,#1284);
#1284=VECTOR('',#1285,1.4224);
#1285=DIRECTION('',(-1.0,0.0,0.0));
#1276=ORIENTED_EDGE('',*,*,#1277,.F.);
#1287=EDGE_CURVE('',#1260,#1278,#1292,.T.);
#1292=LINE('',#1261,#1294);
#1294=VECTOR('',#1295,1.7018);
#1295=DIRECTION('',(0.0,-1.0,0.0));
#1286=ORIENTED_EDGE('',*,*,#1287,.F.);
#1296=STYLED_ITEM('',(#34),#1297);
#1297=ADVANCED_FACE('',(#1303),#1298,.T.);
#1298=PLANE('',#1299);
#1299=AXIS2_PLACEMENT_3D('',#1300,#1301,#1302);
#1300=CARTESIAN_POINT('',(2.654,-0.851,0.0));
#1301=DIRECTION('',(1.0,0.0,0.0));
#1302=DIRECTION('',(0.,0.,1.));
#1303=FACE_OUTER_BOUND('',#1304,.T.);
#1304=EDGE_LOOP('',(#1305,#1315,#1325,#1335));
#1308=CARTESIAN_POINT('',(2.654,0.851,0.0));
#1307=VERTEX_POINT('',#1308);
#1310=CARTESIAN_POINT('',(2.654,-0.851,0.0));
#1309=VERTEX_POINT('',#1310);
#1306=EDGE_CURVE('',#1307,#1309,#1311,.T.);
#1311=LINE('',#1308,#1313);
#1313=VECTOR('',#1314,1.7018);
#1314=DIRECTION('',(0.0,-1.0,0.0));
#1305=ORIENTED_EDGE('',*,*,#1306,.F.);
#1316=EDGE_CURVE('',#1211,#1307,#1321,.T.);
#1321=LINE('',#1212,#1323);
#1323=VECTOR('',#1324,1.3081);
#1324=DIRECTION('',(0.0,0.0,-1.0));
#1315=ORIENTED_EDGE('',*,*,#1316,.F.);
#1325=ORIENTED_EDGE('',*,*,#1238,.T.);
#1336=EDGE_CURVE('',#1309,#1229,#1341,.T.);
#1341=LINE('',#1310,#1343);
#1343=VECTOR('',#1344,1.3081);
#1344=DIRECTION('',(0.0,0.0,1.0));
#1335=ORIENTED_EDGE('',*,*,#1336,.F.);
#1345=STYLED_ITEM('',(#34),#1346);
#1346=ADVANCED_FACE('',(#1352),#1347,.T.);
#1347=PLANE('',#1348);
#1348=AXIS2_PLACEMENT_3D('',#1349,#1350,#1351);
#1349=CARTESIAN_POINT('',(2.496,0.851,1.181));
#1350=DIRECTION('',(-1.0,0.0,0.0));
#1351=DIRECTION('',(0.,0.,1.));
#1352=FACE_OUTER_BOUND('',#1353,.T.);
#1353=EDGE_LOOP('',(#1354,#1364,#1374,#1384));
#1357=CARTESIAN_POINT('',(2.496,-0.851,1.181));
#1356=VERTEX_POINT('',#1357);
#1359=CARTESIAN_POINT('',(2.496,0.851,1.181));
#1358=VERTEX_POINT('',#1359);
#1355=EDGE_CURVE('',#1356,#1358,#1360,.T.);
#1360=LINE('',#1357,#1362);
#1362=VECTOR('',#1363,1.7018);
#1363=DIRECTION('',(0.0,1.0,0.0));
#1354=ORIENTED_EDGE('',*,*,#1355,.F.);
#1365=EDGE_CURVE('',#1219,#1356,#1370,.T.);
#1370=LINE('',#1220,#1372);
#1372=VECTOR('',#1373,0.127);
#1373=DIRECTION('',(0.0,0.0,-1.0));
#1364=ORIENTED_EDGE('',*,*,#1365,.F.);
#1374=ORIENTED_EDGE('',*,*,#1218,.T.);
#1385=EDGE_CURVE('',#1358,#1209,#1390,.T.);
#1390=LINE('',#1359,#1392);
#1392=VECTOR('',#1393,0.127);
#1393=DIRECTION('',(0.0,0.0,1.0));
#1384=ORIENTED_EDGE('',*,*,#1385,.F.);
#1394=STYLED_ITEM('',(#34),#1395);
#1395=ADVANCED_FACE('',(#1401),#1396,.T.);
#1396=PLANE('',#1397);
#1397=AXIS2_PLACEMENT_3D('',#1398,#1399,#1400);
#1398=CARTESIAN_POINT('',(1.105,0.851,0.0));
#1399=DIRECTION('',(-1.0,0.0,0.0));
#1400=DIRECTION('',(0.,0.,1.));
#1401=FACE_OUTER_BOUND('',#1402,.T.);
#1402=EDGE_LOOP('',(#1403,#1413,#1423,#1433));
#1406=CARTESIAN_POINT('',(1.105,-0.851,0.0));
#1405=VERTEX_POINT('',#1406);
#1408=CARTESIAN_POINT('',(1.105,0.851,0.0));
#1407=VERTEX_POINT('',#1408);
#1404=EDGE_CURVE('',#1405,#1407,#1409,.T.);
#1409=LINE('',#1406,#1411);
#1411=VECTOR('',#1412,1.7018);
#1412=DIRECTION('',(0.0,1.0,0.0));
#1403=ORIENTED_EDGE('',*,*,#1404,.F.);
#1414=EDGE_CURVE('',#1268,#1405,#1419,.T.);
#1419=LINE('',#1269,#1421);
#1421=VECTOR('',#1422,0.127);
#1422=DIRECTION('',(0.0,0.0,-1.0));
#1413=ORIENTED_EDGE('',*,*,#1414,.F.);
#1423=ORIENTED_EDGE('',*,*,#1267,.T.);
#1434=EDGE_CURVE('',#1407,#1258,#1439,.T.);
#1439=LINE('',#1408,#1441);
#1441=VECTOR('',#1442,0.127);
#1442=DIRECTION('',(0.0,0.0,1.0));
#1433=ORIENTED_EDGE('',*,*,#1434,.F.);
#1443=STYLED_ITEM('',(#34),#1444);
#1444=ADVANCED_FACE('',(#1450),#1445,.T.);
#1445=PLANE('',#1446);
#1446=AXIS2_PLACEMENT_3D('',#1447,#1448,#1449);
#1447=CARTESIAN_POINT('',(2.527,0.851,0.127));
#1448=DIRECTION('',(-1.0,0.0,0.0));
#1449=DIRECTION('',(0.,0.,1.));
#1450=FACE_OUTER_BOUND('',#1451,.T.);
#1451=EDGE_LOOP('',(#1452,#1462,#1472,#1482));
#1452=ORIENTED_EDGE('',*,*,#1287,.T.);
#1465=CARTESIAN_POINT('',(2.527,-0.851,1.181));
#1464=VERTEX_POINT('',#1465);
#1463=EDGE_CURVE('',#1464,#1278,#1468,.T.);
#1468=LINE('',#1465,#1470);
#1470=VECTOR('',#1471,1.0541);
#1471=DIRECTION('',(0.0,0.0,-1.0));
#1462=ORIENTED_EDGE('',*,*,#1463,.F.);
#1475=CARTESIAN_POINT('',(2.527,0.851,1.181));
#1474=VERTEX_POINT('',#1475);
#1473=EDGE_CURVE('',#1474,#1464,#1478,.T.);
#1478=LINE('',#1475,#1480);
#1480=VECTOR('',#1481,1.7018);
#1481=DIRECTION('',(0.0,-1.0,0.0));
#1472=ORIENTED_EDGE('',*,*,#1473,.F.);
#1483=EDGE_CURVE('',#1260,#1474,#1488,.T.);
#1488=LINE('',#1261,#1490);
#1490=VECTOR('',#1491,1.0541);
#1491=DIRECTION('',(0.0,0.0,1.0));
#1482=ORIENTED_EDGE('',*,*,#1483,.F.);
#1492=STYLED_ITEM('',(#34),#1493);
#1493=ADVANCED_FACE('',(#1499),#1494,.T.);
#1494=PLANE('',#1495);
#1495=AXIS2_PLACEMENT_3D('',#1496,#1497,#1498);
#1496=CARTESIAN_POINT('',(2.527,-0.851,1.181));
#1497=DIRECTION('',(0.0,0.0,-1.0));
#1498=DIRECTION('',(0.,1.,0.));
#1499=FACE_OUTER_BOUND('',#1500,.T.);
#1500=EDGE_LOOP('',(#1501,#1511,#1521,#1531));
#1502=EDGE_CURVE('',#1356,#1464,#1507,.T.);
#1507=LINE('',#1357,#1509);
#1509=VECTOR('',#1510,0.03175);
#1510=DIRECTION('',(1.0,0.0,0.0));
#1501=ORIENTED_EDGE('',*,*,#1502,.F.);
#1511=ORIENTED_EDGE('',*,*,#1355,.T.);
#1522=EDGE_CURVE('',#1474,#1358,#1527,.T.);
#1527=LINE('',#1475,#1529);
#1529=VECTOR('',#1530,0.03175);
#1530=DIRECTION('',(-1.0,0.0,0.0));
#1521=ORIENTED_EDGE('',*,*,#1522,.F.);
#1531=ORIENTED_EDGE('',*,*,#1473,.T.);
#1541=STYLED_ITEM('',(#34),#1542);
#1542=ADVANCED_FACE('',(#1548),#1543,.T.);
#1543=PLANE('',#1544);
#1544=AXIS2_PLACEMENT_3D('',#1545,#1546,#1547);
#1545=CARTESIAN_POINT('',(2.654,-0.851,0.0));
#1546=DIRECTION('',(0.0,0.0,-1.0));
#1547=DIRECTION('',(0.,1.,0.));
#1548=FACE_OUTER_BOUND('',#1549,.T.);
#1549=EDGE_LOOP('',(#1550,#1560,#1570,#1580));
#1551=EDGE_CURVE('',#1405,#1309,#1556,.T.);
#1556=LINE('',#1406,#1558);
#1558=VECTOR('',#1559,1.5494);
#1559=DIRECTION('',(1.0,0.0,0.0));
#1550=ORIENTED_EDGE('',*,*,#1551,.F.);
#1560=ORIENTED_EDGE('',*,*,#1404,.T.);
#1571=EDGE_CURVE('',#1307,#1407,#1576,.T.);
#1576=LINE('',#1308,#1578);
#1578=VECTOR('',#1579,1.5494);
#1579=DIRECTION('',(-1.0,0.0,0.0));
#1570=ORIENTED_EDGE('',*,*,#1571,.F.);
#1580=ORIENTED_EDGE('',*,*,#1306,.T.);
#1590=STYLED_ITEM('',(#34),#1591);
#1591=ADVANCED_FACE('',(#1597),#1592,.T.);
#1592=PLANE('',#1593);
#1593=AXIS2_PLACEMENT_3D('',#1594,#1595,#1596);
#1594=CARTESIAN_POINT('',(2.654,0.851,0.0));
#1595=DIRECTION('',(0.0,1.0,0.0));
#1596=DIRECTION('',(0.,0.,1.));
#1597=FACE_OUTER_BOUND('',#1598,.T.);
#1598=EDGE_LOOP('',(#1599,#1609,#1619,#1629,#1639,#1649,#1659,#1669));
#1599=ORIENTED_EDGE('',*,*,#1571,.T.);
#1609=ORIENTED_EDGE('',*,*,#1434,.T.);
#1619=ORIENTED_EDGE('',*,*,#1257,.T.);
#1629=ORIENTED_EDGE('',*,*,#1483,.T.);
#1639=ORIENTED_EDGE('',*,*,#1522,.T.);
#1649=ORIENTED_EDGE('',*,*,#1385,.T.);
#1659=ORIENTED_EDGE('',*,*,#1208,.T.);
#1669=ORIENTED_EDGE('',*,*,#1316,.T.);
#1679=STYLED_ITEM('',(#34),#1680);
#1680=ADVANCED_FACE('',(#1686),#1681,.T.);
#1681=PLANE('',#1682);
#1682=AXIS2_PLACEMENT_3D('',#1683,#1684,#1685);
#1683=CARTESIAN_POINT('',(1.105,-0.851,0.0));
#1684=DIRECTION('',(0.0,-1.0,0.0));
#1685=DIRECTION('',(0.,0.,1.));
#1686=FACE_OUTER_BOUND('',#1687,.T.);
#1687=EDGE_LOOP('',(#1688,#1698,#1708,#1718,#1728,#1738,#1748,#1758));
#1688=ORIENTED_EDGE('',*,*,#1551,.T.);
#1698=ORIENTED_EDGE('',*,*,#1336,.T.);
#1708=ORIENTED_EDGE('',*,*,#1228,.T.);
#1718=ORIENTED_EDGE('',*,*,#1365,.T.);
#1728=ORIENTED_EDGE('',*,*,#1502,.T.);
#1738=ORIENTED_EDGE('',*,*,#1463,.T.);
#1748=ORIENTED_EDGE('',*,*,#1277,.T.);
#1758=ORIENTED_EDGE('',*,*,#1414,.T.);
#1769=MANIFOLD_SOLID_BREP($,#1770);
#1770=CLOSED_SHELL('',(#1772,#1821,#1870,#1919,#1968,#2017,#2066,#2115,#2164,#2253));
#1771=STYLED_ITEM('',(#34),#1772);
#1772=ADVANCED_FACE('',(#1778),#1773,.T.);
#1773=PLANE('',#1774);
#1774=AXIS2_PLACEMENT_3D('',#1775,#1776,#1777);
#1775=CARTESIAN_POINT('',(-2.654,-0.851,1.308));
#1776=DIRECTION('',(0.0,0.0,1.0));
#1777=DIRECTION('',(0.,1.,0.));
#1778=FACE_OUTER_BOUND('',#1779,.T.);
#1779=EDGE_LOOP('',(#1780,#1790,#1800,#1810));
#1783=CARTESIAN_POINT('',(-2.496,-0.851,1.308));
#1782=VERTEX_POINT('',#1783);
#1785=CARTESIAN_POINT('',(-2.654,-0.851,1.308));
#1784=VERTEX_POINT('',#1785);
#1781=EDGE_CURVE('',#1782,#1784,#1786,.T.);
#1786=LINE('',#1783,#1788);
#1788=VECTOR('',#1789,0.15875);
#1789=DIRECTION('',(-1.0,0.0,0.0));
#1780=ORIENTED_EDGE('',*,*,#1781,.F.);
#1793=CARTESIAN_POINT('',(-2.496,0.851,1.308));
#1792=VERTEX_POINT('',#1793);
#1791=EDGE_CURVE('',#1792,#1782,#1796,.T.);
#1796=LINE('',#1793,#1798);
#1798=VECTOR('',#1799,1.7018);
#1799=DIRECTION('',(0.0,-1.0,0.0));
#1790=ORIENTED_EDGE('',*,*,#1791,.F.);
#1803=CARTESIAN_POINT('',(-2.654,0.851,1.308));
#1802=VERTEX_POINT('',#1803);
#1801=EDGE_CURVE('',#1802,#1792,#1806,.T.);
#1806=LINE('',#1803,#1808);
#1808=VECTOR('',#1809,0.15875);
#1809=DIRECTION('',(1.0,0.0,0.0));
#1800=ORIENTED_EDGE('',*,*,#1801,.F.);
#1811=EDGE_CURVE('',#1784,#1802,#1816,.T.);
#1816=LINE('',#1785,#1818);
#1818=VECTOR('',#1819,1.7018);
#1819=DIRECTION('',(0.0,1.0,0.0));
#1810=ORIENTED_EDGE('',*,*,#1811,.F.);
#1820=STYLED_ITEM('',(#34),#1821);
#1821=ADVANCED_FACE('',(#1827),#1822,.T.);
#1822=PLANE('',#1823);
#1823=AXIS2_PLACEMENT_3D('',#1824,#1825,#1826);
#1824=CARTESIAN_POINT('',(-2.527,-0.851,0.127));
#1825=DIRECTION('',(0.0,0.0,1.0));
#1826=DIRECTION('',(0.,1.,0.));
#1827=FACE_OUTER_BOUND('',#1828,.T.);
#1828=EDGE_LOOP('',(#1829,#1839,#1849,#1859));
#1832=CARTESIAN_POINT('',(-1.105,-0.851,0.127));
#1831=VERTEX_POINT('',#1832);
#1834=CARTESIAN_POINT('',(-2.527,-0.851,0.127));
#1833=VERTEX_POINT('',#1834);
#1830=EDGE_CURVE('',#1831,#1833,#1835,.T.);
#1835=LINE('',#1832,#1837);
#1837=VECTOR('',#1838,1.4224);
#1838=DIRECTION('',(-1.0,0.0,0.0));
#1829=ORIENTED_EDGE('',*,*,#1830,.F.);
#1842=CARTESIAN_POINT('',(-1.105,0.851,0.127));
#1841=VERTEX_POINT('',#1842);
#1840=EDGE_CURVE('',#1841,#1831,#1845,.T.);
#1845=LINE('',#1842,#1847);
#1847=VECTOR('',#1848,1.7018);
#1848=DIRECTION('',(0.0,-1.0,0.0));
#1839=ORIENTED_EDGE('',*,*,#1840,.F.);
#1852=CARTESIAN_POINT('',(-2.527,0.851,0.127));
#1851=VERTEX_POINT('',#1852);
#1850=EDGE_CURVE('',#1851,#1841,#1855,.T.);
#1855=LINE('',#1852,#1857);
#1857=VECTOR('',#1858,1.4224);
#1858=DIRECTION('',(1.0,0.0,0.0));
#1849=ORIENTED_EDGE('',*,*,#1850,.F.);
#1860=EDGE_CURVE('',#1833,#1851,#1865,.T.);
#1865=LINE('',#1834,#1867);
#1867=VECTOR('',#1868,1.7018);
#1868=DIRECTION('',(0.0,1.0,0.0));
#1859=ORIENTED_EDGE('',*,*,#1860,.F.);
#1869=STYLED_ITEM('',(#34),#1870);
#1870=ADVANCED_FACE('',(#1876),#1871,.T.);
#1871=PLANE('',#1872);
#1872=AXIS2_PLACEMENT_3D('',#1873,#1874,#1875);
#1873=CARTESIAN_POINT('',(-2.654,0.851,0.0));
#1874=DIRECTION('',(-1.0,0.0,0.0));
#1875=DIRECTION('',(0.,0.,1.));
#1876=FACE_OUTER_BOUND('',#1877,.T.);
#1877=EDGE_LOOP('',(#1878,#1888,#1898,#1908));
#1881=CARTESIAN_POINT('',(-2.654,-0.851,0.0));
#1880=VERTEX_POINT('',#1881);
#1883=CARTESIAN_POINT('',(-2.654,0.851,0.0));
#1882=VERTEX_POINT('',#1883);
#1879=EDGE_CURVE('',#1880,#1882,#1884,.T.);
#1884=LINE('',#1881,#1886);
#1886=VECTOR('',#1887,1.7018);
#1887=DIRECTION('',(0.0,1.0,0.0));
#1878=ORIENTED_EDGE('',*,*,#1879,.F.);
#1889=EDGE_CURVE('',#1784,#1880,#1894,.T.);
#1894=LINE('',#1785,#1896);
#1896=VECTOR('',#1897,1.3081);
#1897=DIRECTION('',(0.0,0.0,-1.0));
#1888=ORIENTED_EDGE('',*,*,#1889,.F.);
#1898=ORIENTED_EDGE('',*,*,#1811,.T.);
#1909=EDGE_CURVE('',#1882,#1802,#1914,.T.);
#1914=LINE('',#1883,#1916);
#1916=VECTOR('',#1917,1.3081);
#1917=DIRECTION('',(0.0,0.0,1.0));
#1908=ORIENTED_EDGE('',*,*,#1909,.F.);
#1918=STYLED_ITEM('',(#34),#1919);
#1919=ADVANCED_FACE('',(#1925),#1920,.T.);
#1920=PLANE('',#1921);
#1921=AXIS2_PLACEMENT_3D('',#1922,#1923,#1924);
#1922=CARTESIAN_POINT('',(-2.496,-0.851,1.181));
#1923=DIRECTION('',(1.0,0.0,0.0));
#1924=DIRECTION('',(0.,0.,1.));
#1925=FACE_OUTER_BOUND('',#1926,.T.);
#1926=EDGE_LOOP('',(#1927,#1937,#1947,#1957));
#1930=CARTESIAN_POINT('',(-2.496,0.851,1.181));
#1929=VERTEX_POINT('',#1930);
#1932=CARTESIAN_POINT('',(-2.496,-0.851,1.181));
#1931=VERTEX_POINT('',#1932);
#1928=EDGE_CURVE('',#1929,#1931,#1933,.T.);
#1933=LINE('',#1930,#1935);
#1935=VECTOR('',#1936,1.7018);
#1936=DIRECTION('',(0.0,-1.0,0.0));
#1927=ORIENTED_EDGE('',*,*,#1928,.F.);
#1938=EDGE_CURVE('',#1792,#1929,#1943,.T.);
#1943=LINE('',#1793,#1945);
#1945=VECTOR('',#1946,0.127);
#1946=DIRECTION('',(0.0,0.0,-1.0));
#1937=ORIENTED_EDGE('',*,*,#1938,.F.);
#1947=ORIENTED_EDGE('',*,*,#1791,.T.);
#1958=EDGE_CURVE('',#1931,#1782,#1963,.T.);
#1963=LINE('',#1932,#1965);
#1965=VECTOR('',#1966,0.127);
#1966=DIRECTION('',(0.0,0.0,1.0));
#1957=ORIENTED_EDGE('',*,*,#1958,.F.);
#1967=STYLED_ITEM('',(#34),#1968);
#1968=ADVANCED_FACE('',(#1974),#1969,.T.);
#1969=PLANE('',#1970);
#1970=AXIS2_PLACEMENT_3D('',#1971,#1972,#1973);
#1971=CARTESIAN_POINT('',(-1.105,-0.851,0.0));
#1972=DIRECTION('',(1.0,0.0,0.0));
#1973=DIRECTION('',(0.,0.,1.));
#1974=FACE_OUTER_BOUND('',#1975,.T.);
#1975=EDGE_LOOP('',(#1976,#1986,#1996,#2006));
#1979=CARTESIAN_POINT('',(-1.105,0.851,0.0));
#1978=VERTEX_POINT('',#1979);
#1981=CARTESIAN_POINT('',(-1.105,-0.851,0.0));
#1980=VERTEX_POINT('',#1981);
#1977=EDGE_CURVE('',#1978,#1980,#1982,.T.);
#1982=LINE('',#1979,#1984);
#1984=VECTOR('',#1985,1.7018);
#1985=DIRECTION('',(0.0,-1.0,0.0));
#1976=ORIENTED_EDGE('',*,*,#1977,.F.);
#1987=EDGE_CURVE('',#1841,#1978,#1992,.T.);
#1992=LINE('',#1842,#1994);
#1994=VECTOR('',#1995,0.127);
#1995=DIRECTION('',(0.0,0.0,-1.0));
#1986=ORIENTED_EDGE('',*,*,#1987,.F.);
#1996=ORIENTED_EDGE('',*,*,#1840,.T.);
#2007=EDGE_CURVE('',#1980,#1831,#2012,.T.);
#2012=LINE('',#1981,#2014);
#2014=VECTOR('',#2015,0.127);
#2015=DIRECTION('',(0.0,0.0,1.0));
#2006=ORIENTED_EDGE('',*,*,#2007,.F.);
#2016=STYLED_ITEM('',(#34),#2017);
#2017=ADVANCED_FACE('',(#2023),#2018,.T.);
#2018=PLANE('',#2019);
#2019=AXIS2_PLACEMENT_3D('',#2020,#2021,#2022);
#2020=CARTESIAN_POINT('',(-2.527,-0.851,0.127));
#2021=DIRECTION('',(1.0,0.0,0.0));
#2022=DIRECTION('',(0.,0.,1.));
#2023=FACE_OUTER_BOUND('',#2024,.T.);
#2024=EDGE_LOOP('',(#2025,#2035,#2045,#2055));
#2025=ORIENTED_EDGE('',*,*,#1860,.T.);
#2038=CARTESIAN_POINT('',(-2.527,0.851,1.181));
#2037=VERTEX_POINT('',#2038);
#2036=EDGE_CURVE('',#2037,#1851,#2041,.T.);
#2041=LINE('',#2038,#2043);
#2043=VECTOR('',#2044,1.0541);
#2044=DIRECTION('',(0.0,0.0,-1.0));
#2035=ORIENTED_EDGE('',*,*,#2036,.F.);
#2048=CARTESIAN_POINT('',(-2.527,-0.851,1.181));
#2047=VERTEX_POINT('',#2048);
#2046=EDGE_CURVE('',#2047,#2037,#2051,.T.);
#2051=LINE('',#2048,#2053);
#2053=VECTOR('',#2054,1.7018);
#2054=DIRECTION('',(0.0,1.0,0.0));
#2045=ORIENTED_EDGE('',*,*,#2046,.F.);
#2056=EDGE_CURVE('',#1833,#2047,#2061,.T.);
#2061=LINE('',#1834,#2063);
#2063=VECTOR('',#2064,1.0541);
#2064=DIRECTION('',(0.0,0.0,1.0));
#2055=ORIENTED_EDGE('',*,*,#2056,.F.);
#2065=STYLED_ITEM('',(#34),#2066);
#2066=ADVANCED_FACE('',(#2072),#2067,.T.);
#2067=PLANE('',#2068);
#2068=AXIS2_PLACEMENT_3D('',#2069,#2070,#2071);
#2069=CARTESIAN_POINT('',(-2.527,0.851,1.181));
#2070=DIRECTION('',(0.0,0.0,-1.0));
#2071=DIRECTION('',(0.,1.,0.));
#2072=FACE_OUTER_BOUND('',#2073,.T.);
#2073=EDGE_LOOP('',(#2074,#2084,#2094,#2104));
#2075=EDGE_CURVE('',#1929,#2037,#2080,.T.);
#2080=LINE('',#1930,#2082);
#2082=VECTOR('',#2083,0.03175);
#2083=DIRECTION('',(-1.0,0.0,0.0));
#2074=ORIENTED_EDGE('',*,*,#2075,.F.);
#2084=ORIENTED_EDGE('',*,*,#1928,.T.);
#2095=EDGE_CURVE('',#2047,#1931,#2100,.T.);
#2100=LINE('',#2048,#2102);
#2102=VECTOR('',#2103,0.03175);
#2103=DIRECTION('',(1.0,0.0,0.0));
#2094=ORIENTED_EDGE('',*,*,#2095,.F.);
#2104=ORIENTED_EDGE('',*,*,#2046,.T.);
#2114=STYLED_ITEM('',(#34),#2115);
#2115=ADVANCED_FACE('',(#2121),#2116,.T.);
#2116=PLANE('',#2117);
#2117=AXIS2_PLACEMENT_3D('',#2118,#2119,#2120);
#2118=CARTESIAN_POINT('',(-2.654,0.851,0.0));
#2119=DIRECTION('',(0.0,0.0,-1.0));
#2120=DIRECTION('',(0.,1.,0.));
#2121=FACE_OUTER_BOUND('',#2122,.T.);
#2122=EDGE_LOOP('',(#2123,#2133,#2143,#2153));
#2124=EDGE_CURVE('',#1978,#1882,#2129,.T.);
#2129=LINE('',#1979,#2131);
#2131=VECTOR('',#2132,1.5494);
#2132=DIRECTION('',(-1.0,0.0,0.0));
#2123=ORIENTED_EDGE('',*,*,#2124,.F.);
#2133=ORIENTED_EDGE('',*,*,#1977,.T.);
#2144=EDGE_CURVE('',#1880,#1980,#2149,.T.);
#2149=LINE('',#1881,#2151);
#2151=VECTOR('',#2152,1.5494);
#2152=DIRECTION('',(1.0,0.0,0.0));
#2143=ORIENTED_EDGE('',*,*,#2144,.F.);
#2153=ORIENTED_EDGE('',*,*,#1879,.T.);
#2163=STYLED_ITEM('',(#34),#2164);
#2164=ADVANCED_FACE('',(#2170),#2165,.T.);
#2165=PLANE('',#2166);
#2166=AXIS2_PLACEMENT_3D('',#2167,#2168,#2169);
#2167=CARTESIAN_POINT('',(-2.654,-0.851,0.0));
#2168=DIRECTION('',(0.0,-1.0,0.0));
#2169=DIRECTION('',(0.,0.,1.));
#2170=FACE_OUTER_BOUND('',#2171,.T.);
#2171=EDGE_LOOP('',(#2172,#2182,#2192,#2202,#2212,#2222,#2232,#2242));
#2172=ORIENTED_EDGE('',*,*,#2144,.T.);
#2182=ORIENTED_EDGE('',*,*,#2007,.T.);
#2192=ORIENTED_EDGE('',*,*,#1830,.T.);
#2202=ORIENTED_EDGE('',*,*,#2056,.T.);
#2212=ORIENTED_EDGE('',*,*,#2095,.T.);
#2222=ORIENTED_EDGE('',*,*,#1958,.T.);
#2232=ORIENTED_EDGE('',*,*,#1781,.T.);
#2242=ORIENTED_EDGE('',*,*,#1889,.T.);
#2252=STYLED_ITEM('',(#34),#2253);
#2253=ADVANCED_FACE('',(#2259),#2254,.T.);
#2254=PLANE('',#2255);
#2255=AXIS2_PLACEMENT_3D('',#2256,#2257,#2258);
#2256=CARTESIAN_POINT('',(-1.105,0.851,0.0));
#2257=DIRECTION('',(0.0,1.0,0.0));
#2258=DIRECTION('',(0.,0.,1.));
#2259=FACE_OUTER_BOUND('',#2260,.T.);
#2260=EDGE_LOOP('',(#2261,#2271,#2281,#2291,#2301,#2311,#2321,#2331));
#2261=ORIENTED_EDGE('',*,*,#2124,.T.);
#2271=ORIENTED_EDGE('',*,*,#1909,.T.);
#2281=ORIENTED_EDGE('',*,*,#1801,.T.);
#2291=ORIENTED_EDGE('',*,*,#1938,.T.);
#2301=ORIENTED_EDGE('',*,*,#2075,.T.);
#2311=ORIENTED_EDGE('',*,*,#2036,.T.);
#2321=ORIENTED_EDGE('',*,*,#1850,.T.);
#2331=ORIENTED_EDGE('',*,*,#1987,.T.);
ENDSEC;
END-ISO-10303-21;
