(kicad_symbol_lib (version 20201005) (generator kicad_symbol_editor)
  (symbol "Downloaded:AP22652AW6-7" (pin_names (offset 0.254)) (in_bom yes) (on_board yes)
    (property "Reference" "U" (id 0) (at 15.24 8.89 0)
      (effects (font (size 1.524 1.524)))
    )
    (property "Value" "AP22652AW6-7" (id 1) (at 15.24 6.35 0)
      (effects (font (size 1.524 1.524)))
    )
    (property "Footprint" "Package_TO_SOT_SMD:SOT-23-6" (id 2) (at 15.24 4.826 0)
      (effects (font (size 1.524 1.524)) hide)
    )
    (property "Datasheet" "" (id 3) (at 0 0 0)
      (effects (font (size 1.524 1.524)))
    )
    (property "ki_fp_filters" "SOIC_52W6-7_DIO SOIC_52W6-7_DIO-M SOIC_52W6-7_DIO-L" (id 4) (at 0 0 0)
      (effects (font (size 1.27 1.27)) hide)
    )
    (symbol "AP22652AW6-7_1_1"
      (polyline
        (pts
          (xy 7.62 -11.43)
          (xy 21.59 -11.43)
        )
        (stroke (width 0.127)) (fill (type none))
      )
      (polyline
        (pts
          (xy 7.62 3.81)
          (xy 7.62 -11.43)
        )
        (stroke (width 0.127)) (fill (type none))
      )
      (polyline
        (pts
          (xy 21.59 -11.43)
          (xy 21.59 3.81)
        )
        (stroke (width 0.127)) (fill (type none))
      )
      (polyline
        (pts
          (xy 21.59 3.81)
          (xy 7.62 3.81)
        )
        (stroke (width 0.127)) (fill (type none))
      )
      (pin power_in line (at 0 0 0) (length 7.62)
        (name "IN" (effects (font (size 1.4986 1.4986))))
        (number "1" (effects (font (size 1.4986 1.4986))))
      )
      (pin power_in line (at 0 -3.81 0) (length 7.62)
        (name "GND" (effects (font (size 1.4986 1.4986))))
        (number "2" (effects (font (size 1.4986 1.4986))))
      )
      (pin input line (at 0 -7.62 0) (length 7.62)
        (name "nEN" (effects (font (size 1.4986 1.4986))))
        (number "3" (effects (font (size 1.4986 1.4986))))
      )
      (pin output line (at 29.21 -7.62 180) (length 7.62)
        (name "nFAULT" (effects (font (size 1.4986 1.4986))))
        (number "4" (effects (font (size 1.4986 1.4986))))
      )
      (pin unspecified line (at 29.21 -3.81 180) (length 7.62)
        (name "ILIM" (effects (font (size 1.4986 1.4986))))
        (number "5" (effects (font (size 1.4986 1.4986))))
      )
      (pin power_out line (at 29.21 0 180) (length 7.62)
        (name "OUT" (effects (font (size 1.4986 1.4986))))
        (number "6" (effects (font (size 1.4986 1.4986))))
      )
    )
  )
  (symbol "Downloaded:FSUSB42UMX" (pin_names (offset 0.254)) (in_bom yes) (on_board yes)
    (property "Reference" "U" (id 0) (at 16.51 12.7 0)
      (effects (font (size 1.524 1.524)))
    )
    (property "Value" "FSUSB42UMX" (id 1) (at 16.51 10.16 0)
      (effects (font (size 1.524 1.524)))
    )
    (property "Footprint" "UMLP10_1P4X1P8_ONS" (id 2) (at 16.51 8.636 0)
      (effects (font (size 1.524 1.524)) hide)
    )
    (property "Datasheet" "" (id 3) (at 5.08 0 0)
      (effects (font (size 1.524 1.524)))
    )
    (property "ki_locked" "" (id 4) (at 0 0 0)
      (effects (font (size 1.27 1.27)))
    )
    (property "ki_fp_filters" "UMLP10_1P4X1P8_ONS UMLP10_1P4X1P8_ONS-M UMLP10_1P4X1P8_ONS-L" (id 5) (at 0 0 0)
      (effects (font (size 1.27 1.27)) hide)
    )
    (symbol "FSUSB42UMX_1_1"
      (polyline
        (pts
          (xy 7.62 -15.24)
          (xy 24.13 -15.24)
        )
        (stroke (width 0.127)) (fill (type none))
      )
      (polyline
        (pts
          (xy 7.62 7.62)
          (xy 7.62 -15.24)
        )
        (stroke (width 0.127)) (fill (type none))
      )
      (polyline
        (pts
          (xy 24.13 -15.24)
          (xy 24.13 7.62)
        )
        (stroke (width 0.127)) (fill (type none))
      )
      (polyline
        (pts
          (xy 24.13 7.62)
          (xy 7.62 7.62)
        )
        (stroke (width 0.127)) (fill (type none))
      )
      (pin unspecified line (at 5.08 -2.54 0) (length 2.54)
        (name "D+" (effects (font (size 1.4986 1.4986))))
        (number "1" (effects (font (size 1.4986 1.4986))))
      )
      (pin unspecified line (at 5.08 2.54 0) (length 2.54)
        (name "SEL" (effects (font (size 1.4986 1.4986))))
        (number "10" (effects (font (size 1.4986 1.4986))))
      )
      (pin unspecified line (at 5.08 -5.08 0) (length 2.54)
        (name "D-" (effects (font (size 1.4986 1.4986))))
        (number "2" (effects (font (size 1.4986 1.4986))))
      )
      (pin power_in line (at 5.08 -12.7 0) (length 2.54)
        (name "GND" (effects (font (size 1.4986 1.4986))))
        (number "3" (effects (font (size 1.4986 1.4986))))
      )
      (pin bidirectional line (at 26.67 2.54 180) (length 2.54)
        (name "HSD1-" (effects (font (size 1.4986 1.4986))))
        (number "4" (effects (font (size 1.4986 1.4986))))
      )
      (pin bidirectional line (at 26.67 5.08 180) (length 2.54)
        (name "HSD1+" (effects (font (size 1.4986 1.4986))))
        (number "5" (effects (font (size 1.4986 1.4986))))
      )
      (pin bidirectional line (at 26.67 -12.7 180) (length 2.54)
        (name "HSD2-" (effects (font (size 1.4986 1.4986))))
        (number "6" (effects (font (size 1.4986 1.4986))))
      )
      (pin bidirectional line (at 26.67 -10.16 180) (length 2.54)
        (name "HSD2+" (effects (font (size 1.4986 1.4986))))
        (number "7" (effects (font (size 1.4986 1.4986))))
      )
      (pin unspecified line (at 5.08 -10.16 0) (length 2.54)
        (name "/OE" (effects (font (size 1.4986 1.4986))))
        (number "8" (effects (font (size 1.4986 1.4986))))
      )
      (pin power_in line (at 5.08 5.08 0) (length 2.54)
        (name "VCC" (effects (font (size 1.4986 1.4986))))
        (number "9" (effects (font (size 1.4986 1.4986))))
      )
    )
  )
  (symbol "Downloaded:LM60430AQRPKRQ1" (pin_names (offset -0.254)) (in_bom yes) (on_board yes)
    (property "Reference" "U" (id 0) (at 0 2.54 0)
      (effects (font (size 1.524 1.524)))
    )
    (property "Value" "LM60430AQRPKRQ1" (id 1) (at 0 0 0)
      (effects (font (size 1.524 1.524)))
    )
    (property "Footprint" "RPK0013A-MFG" (id 2) (at 0 -1.524 0)
      (effects (font (size 1.524 1.524)) hide)
    )
    (property "Datasheet" "" (id 3) (at 0 0 0)
      (effects (font (size 1.524 1.524)))
    )
    (property "ki_locked" "" (id 4) (at 0 0 0)
      (effects (font (size 1.27 1.27)))
    )
    (property "ki_fp_filters" "RPK0013A-MFG" (id 5) (at 0 0 0)
      (effects (font (size 1.27 1.27)) hide)
    )
    (symbol "LM60430AQRPKRQ1_1_1"
      (polyline
        (pts
          (xy -2.54 -30.48)
          (xy 27.94 -30.48)
        )
        (stroke (width 0.2032)) (fill (type none))
      )
      (polyline
        (pts
          (xy -2.54 5.08)
          (xy -2.54 -30.48)
        )
        (stroke (width 0.2032)) (fill (type none))
      )
      (polyline
        (pts
          (xy 27.94 -30.48)
          (xy 27.94 5.08)
        )
        (stroke (width 0.2032)) (fill (type none))
      )
      (polyline
        (pts
          (xy 27.94 5.08)
          (xy -2.54 5.08)
        )
        (stroke (width 0.2032)) (fill (type none))
      )
      (pin power_in line (at 33.02 -22.86 180) (length 5.08)
        (name "PGND" (effects (font (size 1.4986 1.4986))))
        (number "1" (effects (font (size 1.4986 1.4986))))
      )
      (pin power_in line (at -7.62 -2.54 0) (length 5.08)
        (name "VIN" (effects (font (size 1.4986 1.4986))))
        (number "10" (effects (font (size 1.4986 1.4986))))
      )
      (pin power_in line (at 33.02 -25.4 180) (length 5.08)
        (name "PGND" (effects (font (size 1.4986 1.4986))))
        (number "11" (effects (font (size 1.4986 1.4986))))
      )
      (pin unspecified line (at 33.02 -5.08 180) (length 5.08)
        (name "SW" (effects (font (size 1.4986 1.4986))))
        (number "12" (effects (font (size 1.4986 1.4986))))
      )
      (pin power_in line (at 33.02 -27.94 180) (length 5.08)
        (name "PGND" (effects (font (size 1.4986 1.4986))))
        (number "13" (effects (font (size 1.4986 1.4986))))
      )
      (pin power_in line (at -7.62 0 0) (length 5.08)
        (name "VIN" (effects (font (size 1.4986 1.4986))))
        (number "2" (effects (font (size 1.4986 1.4986))))
      )
      (pin unspecified line (at -7.62 -27.94 0) (length 5.08)
        (name "NC" (effects (font (size 1.4986 1.4986))))
        (number "3" (effects (font (size 1.4986 1.4986))))
      )
      (pin unspecified line (at 33.02 0 180) (length 5.08)
        (name "BOOT" (effects (font (size 1.4986 1.4986))))
        (number "4" (effects (font (size 1.4986 1.4986))))
      )
      (pin power_in line (at -7.62 -7.62 0) (length 5.08)
        (name "VCC" (effects (font (size 1.4986 1.4986))))
        (number "5" (effects (font (size 1.4986 1.4986))))
      )
      (pin power_in line (at 33.02 -20.32 180) (length 5.08)
        (name "AGND" (effects (font (size 1.4986 1.4986))))
        (number "6" (effects (font (size 1.4986 1.4986))))
      )
      (pin unspecified line (at 33.02 -10.16 180) (length 5.08)
        (name "FB" (effects (font (size 1.4986 1.4986))))
        (number "7" (effects (font (size 1.4986 1.4986))))
      )
      (pin open_collector line (at 33.02 -15.24 180) (length 5.08)
        (name "PG" (effects (font (size 1.4986 1.4986))))
        (number "8" (effects (font (size 1.4986 1.4986))))
      )
      (pin input line (at -7.62 -12.7 0) (length 5.08)
        (name "EN" (effects (font (size 1.4986 1.4986))))
        (number "9" (effects (font (size 1.4986 1.4986))))
      )
    )
  )
  (symbol "Downloaded:LMR36503MSCQRPERQ1" (pin_names (offset 0.254)) (in_bom yes) (on_board yes)
    (property "Reference" "U" (id 0) (at 0 2.54 0)
      (effects (font (size 1.524 1.524)))
    )
    (property "Value" "LMR36503MSCQRPERQ1" (id 1) (at 0 0 0)
      (effects (font (size 1.524 1.524)))
    )
    (property "Footprint" "RPE0009A" (id 2) (at 0 -1.524 0)
      (effects (font (size 1.524 1.524)) hide)
    )
    (property "Datasheet" "" (id 3) (at 0 0 0)
      (effects (font (size 1.524 1.524)))
    )
    (property "ki_locked" "" (id 4) (at 0 0 0)
      (effects (font (size 1.27 1.27)))
    )
    (property "ki_fp_filters" "RPE0009A" (id 5) (at 0 0 0)
      (effects (font (size 1.27 1.27)) hide)
    )
    (symbol "LMR36503MSCQRPERQ1_1_1"
      (polyline
        (pts
          (xy -17.78 -15.24)
          (xy 17.78 -15.24)
        )
        (stroke (width 0.2032)) (fill (type none))
      )
      (polyline
        (pts
          (xy -17.78 15.24)
          (xy -17.78 -15.24)
        )
        (stroke (width 0.2032)) (fill (type none))
      )
      (polyline
        (pts
          (xy 17.78 -15.24)
          (xy 17.78 15.24)
        )
        (stroke (width 0.2032)) (fill (type none))
      )
      (polyline
        (pts
          (xy 17.78 15.24)
          (xy -17.78 15.24)
        )
        (stroke (width 0.2032)) (fill (type none))
      )
      (pin input line (at -22.86 -7.62 0) (length 5.08)
        (name "MODE_SYNC" (effects (font (size 1.4986 1.4986))))
        (number "1" (effects (font (size 1.4986 1.4986))))
      )
      (pin output line (at -22.86 -12.7 0) (length 5.08)
        (name "PGOOD" (effects (font (size 1.4986 1.4986))))
        (number "2" (effects (font (size 1.4986 1.4986))))
      )
      (pin unspecified line (at -22.86 2.54 0) (length 5.08)
        (name "EN_UVLO" (effects (font (size 1.4986 1.4986))))
        (number "3" (effects (font (size 1.4986 1.4986))))
      )
      (pin power_in line (at -22.86 10.16 0) (length 5.08)
        (name "VIN" (effects (font (size 1.4986 1.4986))))
        (number "4" (effects (font (size 1.4986 1.4986))))
      )
      (pin power_in line (at 22.86 2.54 180) (length 5.08)
        (name "SW" (effects (font (size 1.4986 1.4986))))
        (number "5" (effects (font (size 1.4986 1.4986))))
      )
      (pin unspecified line (at 22.86 10.16 180) (length 5.08)
        (name "BOOT" (effects (font (size 1.4986 1.4986))))
        (number "6" (effects (font (size 1.4986 1.4986))))
      )
      (pin power_in line (at -22.86 -2.54 0) (length 5.08)
        (name "VCC" (effects (font (size 1.4986 1.4986))))
        (number "7" (effects (font (size 1.4986 1.4986))))
      )
      (pin unspecified line (at 22.86 -7.62 180) (length 5.08)
        (name "FB" (effects (font (size 1.4986 1.4986))))
        (number "8" (effects (font (size 1.4986 1.4986))))
      )
      (pin power_in line (at 22.86 -12.7 180) (length 5.08)
        (name "GND" (effects (font (size 1.4986 1.4986))))
        (number "9" (effects (font (size 1.4986 1.4986))))
      )
    )
  )
  (symbol "Downloaded:LP55231SQE_NOPB" (pin_names (offset 0.254)) (in_bom yes) (on_board yes)
    (property "Reference" "U" (id 0) (at 20.32 12.7 0)
      (effects (font (size 1.524 1.524)))
    )
    (property "Value" "LP55231SQE_NOPB" (id 1) (at 20.32 10.16 0)
      (effects (font (size 1.524 1.524)))
    )
    (property "Footprint" "RTW24_TEX" (id 2) (at 20.32 8.636 0)
      (effects (font (size 1.524 1.524)) hide)
    )
    (property "Datasheet" "" (id 3) (at 0 0 0)
      (effects (font (size 1.524 1.524)))
    )
    (property "ki_fp_filters" "RTW24_TEX RTW24_TEX-M RTW24_TEX-L" (id 4) (at 0 0 0)
      (effects (font (size 1.27 1.27)) hide)
    )
    (symbol "LP55231SQE_NOPB_1_1"
      (polyline
        (pts
          (xy 7.62 -40.64)
          (xy 33.02 -40.64)
        )
        (stroke (width 0.127)) (fill (type none))
      )
      (polyline
        (pts
          (xy 7.62 7.62)
          (xy 7.62 -40.64)
        )
        (stroke (width 0.127)) (fill (type none))
      )
      (polyline
        (pts
          (xy 33.02 -40.64)
          (xy 33.02 7.62)
        )
        (stroke (width 0.127)) (fill (type none))
      )
      (polyline
        (pts
          (xy 33.02 7.62)
          (xy 7.62 7.62)
        )
        (stroke (width 0.127)) (fill (type none))
      )
      (pin unspecified line (at 40.64 -2.54 180) (length 7.62)
        (name "C2+" (effects (font (size 1.4986 1.4986))))
        (number "1" (effects (font (size 1.4986 1.4986))))
      )
      (pin bidirectional line (at 0 -27.94 0) (length 7.62)
        (name "TRIG" (effects (font (size 1.4986 1.4986))))
        (number "10" (effects (font (size 1.4986 1.4986))))
      )
      (pin output line (at 40.64 -15.24 180) (length 7.62)
        (name "D9" (effects (font (size 1.4986 1.4986))))
        (number "11" (effects (font (size 1.4986 1.4986))))
      )
      (pin output line (at 40.64 -17.78 180) (length 7.62)
        (name "D8" (effects (font (size 1.4986 1.4986))))
        (number "12" (effects (font (size 1.4986 1.4986))))
      )
      (pin output line (at 40.64 -20.32 180) (length 7.62)
        (name "D7" (effects (font (size 1.4986 1.4986))))
        (number "13" (effects (font (size 1.4986 1.4986))))
      )
      (pin output line (at 40.64 -22.86 180) (length 7.62)
        (name "D6" (effects (font (size 1.4986 1.4986))))
        (number "14" (effects (font (size 1.4986 1.4986))))
      )
      (pin output line (at 40.64 -25.4 180) (length 7.62)
        (name "D5" (effects (font (size 1.4986 1.4986))))
        (number "15" (effects (font (size 1.4986 1.4986))))
      )
      (pin output line (at 40.64 -27.94 180) (length 7.62)
        (name "D4" (effects (font (size 1.4986 1.4986))))
        (number "16" (effects (font (size 1.4986 1.4986))))
      )
      (pin output line (at 40.64 -30.48 180) (length 7.62)
        (name "D3" (effects (font (size 1.4986 1.4986))))
        (number "17" (effects (font (size 1.4986 1.4986))))
      )
      (pin output line (at 40.64 -33.02 180) (length 7.62)
        (name "D2" (effects (font (size 1.4986 1.4986))))
        (number "18" (effects (font (size 1.4986 1.4986))))
      )
      (pin output line (at 40.64 -35.56 180) (length 7.62)
        (name "D1" (effects (font (size 1.4986 1.4986))))
        (number "19" (effects (font (size 1.4986 1.4986))))
      )
      (pin unspecified line (at 40.64 -5.08 180) (length 7.62)
        (name "C1+" (effects (font (size 1.4986 1.4986))))
        (number "2" (effects (font (size 1.4986 1.4986))))
      )
      (pin input line (at 0 0 0) (length 7.62)
        (name "ASEL0" (effects (font (size 1.4986 1.4986))))
        (number "20" (effects (font (size 1.4986 1.4986))))
      )
      (pin input line (at 0 -2.54 0) (length 7.62)
        (name "ASEL1" (effects (font (size 1.4986 1.4986))))
        (number "21" (effects (font (size 1.4986 1.4986))))
      )
      (pin output line (at 40.64 2.54 180) (length 7.62)
        (name "VOUT" (effects (font (size 1.4986 1.4986))))
        (number "22" (effects (font (size 1.4986 1.4986))))
      )
      (pin unspecified line (at 40.64 -7.62 180) (length 7.62)
        (name "C2-" (effects (font (size 1.4986 1.4986))))
        (number "23" (effects (font (size 1.4986 1.4986))))
      )
      (pin unspecified line (at 40.64 -10.16 180) (length 7.62)
        (name "C1-" (effects (font (size 1.4986 1.4986))))
        (number "24" (effects (font (size 1.4986 1.4986))))
      )
      (pin unspecified line (at 0 -22.86 0) (length 7.62)
        (name "EPAD" (effects (font (size 1.4986 1.4986))))
        (number "25" (effects (font (size 1.4986 1.4986))))
      )
      (pin power_in line (at 0 5.08 0) (length 7.62)
        (name "VDD" (effects (font (size 1.4986 1.4986))))
        (number "3" (effects (font (size 1.4986 1.4986))))
      )
      (pin power_in line (at 0 -35.56 0) (length 7.62)
        (name "GND" (effects (font (size 1.4986 1.4986))))
        (number "4" (effects (font (size 1.4986 1.4986))))
      )
      (pin input line (at 0 -12.7 0) (length 7.62)
        (name "EN" (effects (font (size 1.4986 1.4986))))
        (number "5" (effects (font (size 1.4986 1.4986))))
      )
      (pin input line (at 0 -7.62 0) (length 7.62)
        (name "CLK" (effects (font (size 1.4986 1.4986))))
        (number "6" (effects (font (size 1.4986 1.4986))))
      )
      (pin output line (at 0 -15.24 0) (length 7.62)
        (name "INT" (effects (font (size 1.4986 1.4986))))
        (number "7" (effects (font (size 1.4986 1.4986))))
      )
      (pin bidirectional line (at 0 -25.4 0) (length 7.62)
        (name "SDA" (effects (font (size 1.4986 1.4986))))
        (number "8" (effects (font (size 1.4986 1.4986))))
      )
      (pin input line (at 0 -17.78 0) (length 7.62)
        (name "SCL" (effects (font (size 1.4986 1.4986))))
        (number "9" (effects (font (size 1.4986 1.4986))))
      )
    )
  )
  (symbol "Downloaded:LTC4040EUFD" (pin_names (offset 0.254)) (in_bom yes) (on_board yes)
    (property "Reference" "U" (id 0) (at -1.27 7.62 0)
      (effects (font (size 1.524 1.524)))
    )
    (property "Value" "LTC4040EUFD" (id 1) (at -1.27 5.08 0)
      (effects (font (size 1.524 1.524)))
    )
    (property "Footprint" "UFD_24_ADI" (id 2) (at -1.27 2.54 0)
      (effects (font (size 1.524 1.524)) hide)
    )
    (property "Datasheet" "" (id 3) (at 0 0 0)
      (effects (font (size 1.524 1.524)))
    )
    (property "ki_fp_filters" "UFD_24_ADI UFD_24_ADI-M UFD_24_ADI-L" (id 4) (at 0 0 0)
      (effects (font (size 1.27 1.27)) hide)
    )
    (symbol "LTC4040EUFD_1_1"
      (polyline
        (pts
          (xy 7.62 -45.72)
          (xy 50.8 -45.72)
        )
        (stroke (width 0.127)) (fill (type none))
      )
      (polyline
        (pts
          (xy 7.62 7.62)
          (xy 7.62 -45.72)
        )
        (stroke (width 0.127)) (fill (type none))
      )
      (polyline
        (pts
          (xy 50.8 -45.72)
          (xy 50.8 7.62)
        )
        (stroke (width 0.127)) (fill (type none))
      )
      (polyline
        (pts
          (xy 50.8 7.62)
          (xy 7.62 7.62)
        )
        (stroke (width 0.127)) (fill (type none))
      )
      (pin power_out line (at 43.18 15.24 270) (length 7.62)
        (name "VSYS" (effects (font (size 1.4986 1.4986))))
        (number "1" (effects (font (size 1.4986 1.4986))))
      )
      (pin unspecified line (at 58.42 -3.81 180) (length 7.62)
        (name "RSTFB" (effects (font (size 1.4986 1.4986))))
        (number "10" (effects (font (size 1.4986 1.4986))))
      )
      (pin unspecified line (at 58.42 -33.02 180) (length 7.62)
        (name "*RST" (effects (font (size 1.4986 1.4986))))
        (number "11" (effects (font (size 1.4986 1.4986))))
      )
      (pin input line (at 0 -35.56 0) (length 7.62)
        (name "F2" (effects (font (size 1.4986 1.4986))))
        (number "12" (effects (font (size 1.4986 1.4986))))
      )
      (pin input line (at 0 -33.02 0) (length 7.62)
        (name "F1" (effects (font (size 1.4986 1.4986))))
        (number "13" (effects (font (size 1.4986 1.4986))))
      )
      (pin input line (at 0 -30.48 0) (length 7.62)
        (name "F0" (effects (font (size 1.4986 1.4986))))
        (number "14" (effects (font (size 1.4986 1.4986))))
      )
      (pin output line (at 33.02 15.24 270) (length 7.62)
        (name "IGATE" (effects (font (size 1.4986 1.4986))))
        (number "15" (effects (font (size 1.4986 1.4986))))
      )
      (pin unspecified line (at 0 -2.54 0) (length 7.62)
        (name "OVSNS" (effects (font (size 1.4986 1.4986))))
        (number "16" (effects (font (size 1.4986 1.4986))))
      )
      (pin unspecified line (at 0 -7.62 0) (length 7.62)
        (name "NTC" (effects (font (size 1.4986 1.4986))))
        (number "17" (effects (font (size 1.4986 1.4986))))
      )
      (pin unspecified line (at 58.42 -1.27 180) (length 7.62)
        (name "BSTFB" (effects (font (size 1.4986 1.4986))))
        (number "18" (effects (font (size 1.4986 1.4986))))
      )
      (pin unspecified line (at 0 -5.08 0) (length 7.62)
        (name "PFI" (effects (font (size 1.4986 1.4986))))
        (number "19" (effects (font (size 1.4986 1.4986))))
      )
      (pin passive line (at 0 -41.91 0) (length 7.62)
        (name "PROG" (effects (font (size 1.4986 1.4986))))
        (number "2" (effects (font (size 1.4986 1.4986))))
      )
      (pin unspecified line (at 58.42 -35.56 180) (length 7.62)
        (name "*PF0" (effects (font (size 1.4986 1.4986))))
        (number "20" (effects (font (size 1.4986 1.4986))))
      )
      (pin unspecified line (at 58.42 -10.16 180) (length 7.62)
        (name "SW" (effects (font (size 1.4986 1.4986))))
        (number "21" (effects (font (size 1.4986 1.4986))))
      )
      (pin unspecified line (at 58.42 -12.7 180) (length 7.62)
        (name "SW" (effects (font (size 1.4986 1.4986))))
        (number "22" (effects (font (size 1.4986 1.4986))))
      )
      (pin unspecified line (at 58.42 -22.86 180) (length 7.62)
        (name "BAT" (effects (font (size 1.4986 1.4986))))
        (number "23" (effects (font (size 1.4986 1.4986))))
      )
      (pin power_out line (at 45.72 15.24 270) (length 7.62)
        (name "VSYS" (effects (font (size 1.4986 1.4986))))
        (number "24" (effects (font (size 1.4986 1.4986))))
      )
      (pin unspecified line (at 0 -22.86 0) (length 7.62)
        (name "CLPROG" (effects (font (size 1.4986 1.4986))))
        (number "3" (effects (font (size 1.4986 1.4986))))
      )
      (pin unspecified line (at 0 -17.78 0) (length 7.62)
        (name "CHGOFF" (effects (font (size 1.4986 1.4986))))
        (number "4" (effects (font (size 1.4986 1.4986))))
      )
      (pin unspecified line (at 0 -15.24 0) (length 7.62)
        (name "BSTOFF" (effects (font (size 1.4986 1.4986))))
        (number "5" (effects (font (size 1.4986 1.4986))))
      )
      (pin power_in line (at 13.97 15.24 270) (length 7.62)
        (name "VIN" (effects (font (size 1.4986 1.4986))))
        (number "6" (effects (font (size 1.4986 1.4986))))
      )
      (pin input line (at 22.86 15.24 270) (length 7.62)
        (name "CLN" (effects (font (size 1.4986 1.4986))))
        (number "7" (effects (font (size 1.4986 1.4986))))
      )
      (pin unspecified line (at 58.42 -40.64 180) (length 7.62)
        (name "*CHRG" (effects (font (size 1.4986 1.4986))))
        (number "8" (effects (font (size 1.4986 1.4986))))
      )
      (pin unspecified line (at 58.42 -38.1 180) (length 7.62)
        (name "*FAULT" (effects (font (size 1.4986 1.4986))))
        (number "9" (effects (font (size 1.4986 1.4986))))
      )
    )
    (symbol "LTC4040EUFD_2_1"
      (polyline
        (pts
          (xy 7.62 -5.08)
          (xy 33.02 -5.08)
        )
        (stroke (width 0.127)) (fill (type none))
      )
      (polyline
        (pts
          (xy 7.62 5.08)
          (xy 7.62 -5.08)
        )
        (stroke (width 0.127)) (fill (type none))
      )
      (polyline
        (pts
          (xy 33.02 -5.08)
          (xy 33.02 5.08)
        )
        (stroke (width 0.127)) (fill (type none))
      )
      (polyline
        (pts
          (xy 33.02 5.08)
          (xy 7.62 5.08)
        )
        (stroke (width 0.127)) (fill (type none))
      )
      (pin power_in line (at 0 0 0) (length 7.62)
        (name "GND" (effects (font (size 1.4986 1.4986))))
        (number "25" (effects (font (size 1.4986 1.4986))))
      )
    )
  )
  (symbol "Downloaded:LTC6994CS6-2TRMPBF" (pin_names (offset 1.016)) (in_bom yes) (on_board yes)
    (property "Reference" "U" (id 0) (at -6.35 2.54 0)
      (effects (font (size 1.27 1.27)) (justify left bottom))
    )
    (property "Value" "LTC6994CS6-2TRMPBF" (id 1) (at -6.35 0 0)
      (effects (font (size 1.27 1.27)) (justify left bottom))
    )
    (property "Footprint" "SOT95P280X100-6N" (id 2) (at 1.27 10.16 0)
      (effects (font (size 1.27 1.27)) (justify left bottom) hide)
    )
    (property "Datasheet" "" (id 3) (at 6.35 -7.62 0)
      (effects (font (size 1.27 1.27)) (justify left bottom) hide)
    )
    (property "MPN" "LTC6994CS6-2#TRMPBF" (id 4) (at 1.27 12.7 0)
      (effects (font (size 1.27 1.27)) (justify left bottom) hide)
    )
    (property "PACKAGE" "TSOT-23-6" (id 5) (at 1.27 2.54 0)
      (effects (font (size 1.27 1.27)) (justify left bottom) hide)
    )
    (property "OC_NEWARK" "24T2709" (id 6) (at 1.27 5.08 0)
      (effects (font (size 1.27 1.27)) (justify left bottom) hide)
    )
    (property "OC_FARNELL" "1848061" (id 7) (at 11.43 5.08 0)
      (effects (font (size 1.27 1.27)) (justify left bottom) hide)
    )
    (property "SUPPLIER" "Linear Technology" (id 8) (at 1.27 7.62 0)
      (effects (font (size 1.27 1.27)) (justify left bottom) hide)
    )
    (property "ki_locked" "" (id 9) (at 0 0 0)
      (effects (font (size 1.27 1.27)))
    )
    (symbol "LTC6994CS6-2TRMPBF_0_0"
      (rectangle (start -6.35 -1.27) (end 6.35 -20.32)
        (stroke (width 0.4064)) (fill (type background))
      )
      (pin input line (at -11.43 -7.62 0) (length 5.08)
        (name "IN" (effects (font (size 1.016 1.016))))
        (number "1" (effects (font (size 1.016 1.016))))
      )
      (pin passive line (at -11.43 -17.78 0) (length 5.08)
        (name "GND" (effects (font (size 1.016 1.016))))
        (number "2" (effects (font (size 1.016 1.016))))
      )
      (pin input line (at -11.43 -10.16 0) (length 5.08)
        (name "SET" (effects (font (size 1.016 1.016))))
        (number "3" (effects (font (size 1.016 1.016))))
      )
      (pin input line (at -11.43 -12.7 0) (length 5.08)
        (name "DIV" (effects (font (size 1.016 1.016))))
        (number "4" (effects (font (size 1.016 1.016))))
      )
      (pin power_in line (at -11.43 -3.81 0) (length 5.08)
        (name "V+" (effects (font (size 1.016 1.016))))
        (number "5" (effects (font (size 1.016 1.016))))
      )
      (pin output line (at 11.43 -7.62 180) (length 5.08)
        (name "OUT" (effects (font (size 1.016 1.016))))
        (number "6" (effects (font (size 1.016 1.016))))
      )
    )
  )
  (symbol "Downloaded:MAX3375eeka+t" (pin_names (offset 0.254)) (in_bom yes) (on_board yes)
    (property "Reference" "U" (id 0) (at 22.86 10.16 0)
      (effects (font (size 1.524 1.524)))
    )
    (property "Value" "MAX3375eeka+t" (id 1) (at 22.86 7.62 0)
      (effects (font (size 1.524 1.524)))
    )
    (property "Footprint" "21-0078H_MXM" (id 2) (at 22.86 6.096 0)
      (effects (font (size 1.524 1.524)) hide)
    )
    (property "Datasheet" "" (id 3) (at 0 0 0)
      (effects (font (size 1.524 1.524)))
    )
    (property "ki_locked" "" (id 4) (at 0 0 0)
      (effects (font (size 1.27 1.27)))
    )
    (property "ki_fp_filters" "21-0078H_MXM 21-0078H_MXM-M 21-0078H_MXM-L" (id 5) (at 0 0 0)
      (effects (font (size 1.27 1.27)) hide)
    )
    (symbol "MAX3375eeka+t_1_1"
      (polyline
        (pts
          (xy 7.62 -12.7)
          (xy 35.56 -12.7)
        )
        (stroke (width 0.127)) (fill (type none))
      )
      (polyline
        (pts
          (xy 7.62 5.08)
          (xy 7.62 -12.7)
        )
        (stroke (width 0.127)) (fill (type none))
      )
      (polyline
        (pts
          (xy 35.56 -12.7)
          (xy 35.56 5.08)
        )
        (stroke (width 0.127)) (fill (type none))
      )
      (polyline
        (pts
          (xy 35.56 5.08)
          (xy 7.62 5.08)
        )
        (stroke (width 0.127)) (fill (type none))
      )
      (pin output line (at 0 0 0) (length 7.62)
        (name "O/VCC2" (effects (font (size 1.4986 1.4986))))
        (number "1" (effects (font (size 1.4986 1.4986))))
      )
      (pin power_in line (at 0 -2.54 0) (length 7.62)
        (name "GND" (effects (font (size 1.4986 1.4986))))
        (number "2" (effects (font (size 1.4986 1.4986))))
      )
      (pin power_in line (at 0 -5.08 0) (length 7.62)
        (name "VL" (effects (font (size 1.4986 1.4986))))
        (number "3" (effects (font (size 1.4986 1.4986))))
      )
      (pin input line (at 0 -7.62 0) (length 7.62)
        (name "I/VL2" (effects (font (size 1.4986 1.4986))))
        (number "4" (effects (font (size 1.4986 1.4986))))
      )
      (pin output line (at 43.18 -7.62 180) (length 7.62)
        (name "O/VL1" (effects (font (size 1.4986 1.4986))))
        (number "5" (effects (font (size 1.4986 1.4986))))
      )
      (pin input line (at 43.18 -5.08 180) (length 7.62)
        (name "*THREESTATE" (effects (font (size 1.4986 1.4986))))
        (number "6" (effects (font (size 1.4986 1.4986))))
      )
      (pin power_in line (at 43.18 -2.54 180) (length 7.62)
        (name "VCC" (effects (font (size 1.4986 1.4986))))
        (number "7" (effects (font (size 1.4986 1.4986))))
      )
      (pin input line (at 43.18 0 180) (length 7.62)
        (name "I/VCC1" (effects (font (size 1.4986 1.4986))))
        (number "8" (effects (font (size 1.4986 1.4986))))
      )
    )
  )
  (symbol "Downloaded:NC7WZ240K8X" (pin_names (offset 0.254)) (in_bom yes) (on_board yes)
    (property "Reference" "U" (id 0) (at 20.32 10.16 0)
      (effects (font (size 1.524 1.524)))
    )
    (property "Value" "NC7WZ240K8X" (id 1) (at 20.32 7.62 0)
      (effects (font (size 1.524 1.524)))
    )
    (property "Footprint" "US8-8_2P1X2P4_ONS" (id 2) (at 20.32 6.096 0)
      (effects (font (size 1.524 1.524)) hide)
    )
    (property "Datasheet" "" (id 3) (at 0 0 0)
      (effects (font (size 1.524 1.524)))
    )
    (property "ki_locked" "" (id 4) (at 0 0 0)
      (effects (font (size 1.27 1.27)))
    )
    (property "ki_fp_filters" "US8-8_2P1X2P4_ONS US8-8_2P1X2P4_ONS-M US8-8_2P1X2P4_ONS-L" (id 5) (at 0 0 0)
      (effects (font (size 1.27 1.27)) hide)
    )
    (symbol "NC7WZ240K8X_1_1"
      (polyline
        (pts
          (xy 7.62 -12.7)
          (xy 33.02 -12.7)
        )
        (stroke (width 0.127)) (fill (type none))
      )
      (polyline
        (pts
          (xy 7.62 5.08)
          (xy 7.62 -12.7)
        )
        (stroke (width 0.127)) (fill (type none))
      )
      (polyline
        (pts
          (xy 33.02 -12.7)
          (xy 33.02 5.08)
        )
        (stroke (width 0.127)) (fill (type none))
      )
      (polyline
        (pts
          (xy 33.02 5.08)
          (xy 7.62 5.08)
        )
        (stroke (width 0.127)) (fill (type none))
      )
      (pin bidirectional line (at 0 0 0) (length 7.62)
        (name "*OE1" (effects (font (size 1.4986 1.4986))))
        (number "1" (effects (font (size 1.4986 1.4986))))
      )
      (pin bidirectional line (at 0 -2.54 0) (length 7.62)
        (name "A1" (effects (font (size 1.4986 1.4986))))
        (number "2" (effects (font (size 1.4986 1.4986))))
      )
      (pin unspecified line (at 0 -5.08 0) (length 7.62)
        (name "Y2" (effects (font (size 1.4986 1.4986))))
        (number "3" (effects (font (size 1.4986 1.4986))))
      )
      (pin power_in line (at 0 -7.62 0) (length 7.62)
        (name "GND" (effects (font (size 1.4986 1.4986))))
        (number "4" (effects (font (size 1.4986 1.4986))))
      )
      (pin bidirectional line (at 40.64 -7.62 180) (length 7.62)
        (name "A2" (effects (font (size 1.4986 1.4986))))
        (number "5" (effects (font (size 1.4986 1.4986))))
      )
      (pin bidirectional line (at 40.64 -5.08 180) (length 7.62)
        (name "Y1" (effects (font (size 1.4986 1.4986))))
        (number "6" (effects (font (size 1.4986 1.4986))))
      )
      (pin bidirectional line (at 40.64 -2.54 180) (length 7.62)
        (name "*OE2" (effects (font (size 1.4986 1.4986))))
        (number "7" (effects (font (size 1.4986 1.4986))))
      )
      (pin power_in line (at 40.64 0 180) (length 7.62)
        (name "VCC" (effects (font (size 1.4986 1.4986))))
        (number "8" (effects (font (size 1.4986 1.4986))))
      )
    )
  )
  (symbol "Downloaded:PRTR5V0U2AX,215" (pin_names (offset 1.016) hide) (in_bom yes) (on_board yes)
    (property "Reference" "D" (id 0) (at -2.54 -7.5438 0)
      (effects (font (size 1.27 1.27)) (justify left bottom))
    )
    (property "Value" "PRTR5V0U2AX,215" (id 1) (at -2.54 -10.3124 0)
      (effects (font (size 1.27 1.27)) (justify left bottom))
    )
    (property "Footprint" "SOT143B" (id 2) (at 0 0 0)
      (effects (font (size 1.27 1.27)) (justify left bottom) hide)
    )
    (property "Datasheet" "" (id 3) (at 0 0 0)
      (effects (font (size 1.27 1.27)) (justify left bottom) hide)
    )
    (property "ki_locked" "" (id 4) (at 0 0 0)
      (effects (font (size 1.27 1.27)))
    )
    (symbol "PRTR5V0U2AX,215_0_0"
      (circle (center -5.08 -5.08) (radius 0.254) (stroke (width 0.254)) (fill (type none)))
      (circle (center -5.08 5.08) (radius 0.254) (stroke (width 0.254)) (fill (type none)))
      (circle (center 0 -5.08) (radius 0.254) (stroke (width 0.254)) (fill (type none)))
      (circle (center 0 0) (radius 0.254) (stroke (width 0.254)) (fill (type none)))
      (circle (center 0 5.08) (radius 0.254) (stroke (width 0.254)) (fill (type none)))
      (circle (center 5.08 0) (radius 0.254) (stroke (width 0.254)) (fill (type none)))
      (polyline
        (pts
          (xy -6.096 1.016)
          (xy -6.604 0.508)
        )
        (stroke (width 0.254)) (fill (type none))
      )
      (polyline
        (pts
          (xy -6.096 1.016)
          (xy -5.08 1.016)
        )
        (stroke (width 0.254)) (fill (type none))
      )
      (polyline
        (pts
          (xy -5.08 -1.016)
          (xy -5.08 -7.62)
        )
        (stroke (width 0.1524)) (fill (type none))
      )
      (polyline
        (pts
          (xy -5.08 1.016)
          (xy -5.08 7.62)
        )
        (stroke (width 0.1524)) (fill (type none))
      )
      (polyline
        (pts
          (xy -5.08 1.016)
          (xy -4.064 1.016)
        )
        (stroke (width 0.254)) (fill (type none))
      )
      (polyline
        (pts
          (xy -4.064 1.016)
          (xy -3.556 1.524)
        )
        (stroke (width 0.254)) (fill (type none))
      )
      (polyline
        (pts
          (xy -1.016 -1.524)
          (xy 0 -1.524)
        )
        (stroke (width 0.254)) (fill (type none))
      )
      (polyline
        (pts
          (xy -1.016 3.556)
          (xy 0 3.556)
        )
        (stroke (width 0.254)) (fill (type none))
      )
      (polyline
        (pts
          (xy 0 -5.08)
          (xy -5.08 -5.08)
        )
        (stroke (width 0.1524)) (fill (type none))
      )
      (polyline
        (pts
          (xy 0 -3.556)
          (xy 0 -5.08)
        )
        (stroke (width 0.1524)) (fill (type none))
      )
      (polyline
        (pts
          (xy 0 -1.524)
          (xy 0 0)
        )
        (stroke (width 0.1524)) (fill (type none))
      )
      (polyline
        (pts
          (xy 0 -1.524)
          (xy 1.016 -1.524)
        )
        (stroke (width 0.254)) (fill (type none))
      )
      (polyline
        (pts
          (xy 0 0)
          (xy 0 1.524)
        )
        (stroke (width 0.1524)) (fill (type none))
      )
      (polyline
        (pts
          (xy 0 0)
          (xy 2.54 0)
        )
        (stroke (width 0.1524)) (fill (type none))
      )
      (polyline
        (pts
          (xy 0 3.556)
          (xy 0 5.08)
        )
        (stroke (width 0.254)) (fill (type none))
      )
      (polyline
        (pts
          (xy 0 3.556)
          (xy 1.016 3.556)
        )
        (stroke (width 0.254)) (fill (type none))
      )
      (polyline
        (pts
          (xy 0 5.08)
          (xy -5.08 5.08)
        )
        (stroke (width 0.1524)) (fill (type none))
      )
      (polyline
        (pts
          (xy 2.54 0)
          (xy 2.54 7.62)
        )
        (stroke (width 0.1524)) (fill (type none))
      )
      (polyline
        (pts
          (xy 4.064 -1.524)
          (xy 5.08 -1.524)
        )
        (stroke (width 0.254)) (fill (type none))
      )
      (polyline
        (pts
          (xy 4.064 3.556)
          (xy 5.08 3.556)
        )
        (stroke (width 0.254)) (fill (type none))
      )
      (polyline
        (pts
          (xy 5.08 -5.08)
          (xy 0 -5.08)
        )
        (stroke (width 0.1524)) (fill (type none))
      )
      (polyline
        (pts
          (xy 5.08 -3.556)
          (xy 5.08 -5.08)
        )
        (stroke (width 0.1524)) (fill (type none))
      )
      (polyline
        (pts
          (xy 5.08 -1.524)
          (xy 5.08 0)
        )
        (stroke (width 0.1524)) (fill (type none))
      )
      (polyline
        (pts
          (xy 5.08 -1.524)
          (xy 6.096 -1.524)
        )
        (stroke (width 0.254)) (fill (type none))
      )
      (polyline
        (pts
          (xy 5.08 0)
          (xy 5.08 1.524)
        )
        (stroke (width 0.1524)) (fill (type none))
      )
      (polyline
        (pts
          (xy 5.08 0)
          (xy 7.62 0)
        )
        (stroke (width 0.1524)) (fill (type none))
      )
      (polyline
        (pts
          (xy 5.08 3.556)
          (xy 5.08 5.08)
        )
        (stroke (width 0.1524)) (fill (type none))
      )
      (polyline
        (pts
          (xy 5.08 3.556)
          (xy 6.096 3.556)
        )
        (stroke (width 0.254)) (fill (type none))
      )
      (polyline
        (pts
          (xy 5.08 5.08)
          (xy 0 5.08)
        )
        (stroke (width 0.1524)) (fill (type none))
      )
      (polyline
        (pts
          (xy 7.62 0)
          (xy 7.62 7.62)
        )
        (stroke (width 0.1524)) (fill (type none))
      )
      (polyline
        (pts
          (xy -6.096 -1.016)
          (xy -5.08 1.016)
          (xy -4.064 -1.016)
        )
        (stroke (width 0.254)) (fill (type background))
      )
      (polyline
        (pts
          (xy -1.016 -3.556)
          (xy 0 -1.524)
          (xy 1.016 -3.556)
        )
        (stroke (width 0.254)) (fill (type background))
      )
      (polyline
        (pts
          (xy -1.016 1.524)
          (xy 0 3.556)
          (xy 1.016 1.524)
        )
        (stroke (width 0.254)) (fill (type background))
      )
      (polyline
        (pts
          (xy 4.064 -3.556)
          (xy 5.08 -1.524)
          (xy 6.096 -3.556)
        )
        (stroke (width 0.254)) (fill (type background))
      )
      (polyline
        (pts
          (xy 4.064 1.524)
          (xy 5.08 3.556)
          (xy 6.096 1.524)
        )
        (stroke (width 0.254)) (fill (type background))
      )
      (pin passive line (at -5.08 -7.62 90) (length 2.54)
        (name "~" (effects (font (size 1.016 1.016))))
        (number "1" (effects (font (size 1.016 1.016))))
      )
      (pin passive line (at 2.54 7.62 270) (length 2.54)
        (name "~" (effects (font (size 1.016 1.016))))
        (number "2" (effects (font (size 1.016 1.016))))
      )
      (pin passive line (at 7.62 7.62 270) (length 2.54)
        (name "~" (effects (font (size 1.016 1.016))))
        (number "3" (effects (font (size 1.016 1.016))))
      )
      (pin passive line (at -5.08 7.62 270) (length 2.54)
        (name "~" (effects (font (size 1.016 1.016))))
        (number "4" (effects (font (size 1.016 1.016))))
      )
    )
    (symbol "PRTR5V0U2AX,215_1_1"
      (polyline
        (pts
          (xy -4.064 -1.016)
          (xy -6.096 -1.016)
        )
        (stroke (width 0.254)) (fill (type none))
      )
      (polyline
        (pts
          (xy 1.016 -3.556)
          (xy -1.016 -3.556)
        )
        (stroke (width 0.254)) (fill (type none))
      )
      (polyline
        (pts
          (xy 1.016 1.524)
          (xy -1.016 1.524)
        )
        (stroke (width 0.254)) (fill (type none))
      )
      (polyline
        (pts
          (xy 6.096 -3.556)
          (xy 4.064 -3.556)
        )
        (stroke (width 0.254)) (fill (type none))
      )
      (polyline
        (pts
          (xy 6.096 1.524)
          (xy 4.064 1.524)
        )
        (stroke (width 0.254)) (fill (type none))
      )
    )
  )
  (symbol "Downloaded:SIR424DP-T1-GE3" (pin_names (offset 0.254)) (in_bom yes) (on_board yes)
    (property "Reference" "MOSFET" (id 0) (at 1.27 12.7 0)
      (effects (font (size 1.524 1.524)))
    )
    (property "Value" "SIR424DP-T1-GE3" (id 1) (at 1.27 10.16 0)
      (effects (font (size 1.524 1.524)))
    )
    (property "Footprint" "POWERPAK_SO-8_SINGLE_VIS" (id 2) (at 1.27 8.636 0)
      (effects (font (size 1.524 1.524)) hide)
    )
    (property "Datasheet" "" (id 3) (at -12.7 3.81 0)
      (effects (font (size 1.524 1.524)))
    )
    (property "ki_locked" "" (id 4) (at 0 0 0)
      (effects (font (size 1.27 1.27)))
    )
    (property "ki_fp_filters" "POWERPAK_SO-8_SINGLE_VIS POWERPAK_SO-8_SINGLE_VIS-M POWERPAK_SO-8_SINGLE_VIS-L" (id 5) (at 0 0 0)
      (effects (font (size 1.27 1.27)) hide)
    )
    (symbol "SIR424DP-T1-GE3_0_0"
      (text "D" (at 15.24 6.35 0)
        (effects (font (size 2 2)))
      )
      (text "G" (at 2.54 -7.62 0)
        (effects (font (size 2 2)))
      )
      (text "S" (at -15.24 6.35 0)
        (effects (font (size 2 2)))
      )
    )
    (symbol "SIR424DP-T1-GE3_1_1"
      (polyline
        (pts
          (xy -5.08 -3.81)
          (xy 5.08 -3.81)
        )
        (stroke (width 0.127)) (fill (type none))
      )
      (polyline
        (pts
          (xy -5.08 6.35)
          (xy -5.08 -3.81)
        )
        (stroke (width 0.127)) (fill (type none))
      )
      (polyline
        (pts
          (xy 5.08 -3.81)
          (xy 5.08 6.35)
        )
        (stroke (width 0.127)) (fill (type none))
      )
      (polyline
        (pts
          (xy 5.08 6.35)
          (xy -5.08 6.35)
        )
        (stroke (width 0.127)) (fill (type none))
      )
      (pin unspecified line (at -12.7 3.81 0) (length 7.62)
        (name "1" (effects (font (size 1.4986 1.4986))))
        (number "1" (effects (font (size 1.4986 1.4986))))
      )
      (pin unspecified line (at -12.7 1.27 0) (length 7.62)
        (name "2" (effects (font (size 1.4986 1.4986))))
        (number "2" (effects (font (size 1.4986 1.4986))))
      )
      (pin unspecified line (at -12.7 -1.27 0) (length 7.62)
        (name "3" (effects (font (size 1.4986 1.4986))))
        (number "3" (effects (font (size 1.4986 1.4986))))
      )
      (pin unspecified line (at 0 -11.43 90) (length 7.62)
        (name "4" (effects (font (size 1.4986 1.4986))))
        (number "4" (effects (font (size 1.4986 1.4986))))
      )
      (pin unspecified line (at 12.7 -2.54 180) (length 7.62)
        (name "5" (effects (font (size 1.4986 1.4986))))
        (number "5" (effects (font (size 1.4986 1.4986))))
      )
      (pin unspecified line (at 12.7 0 180) (length 7.62)
        (name "6" (effects (font (size 1.4986 1.4986))))
        (number "6" (effects (font (size 1.4986 1.4986))))
      )
      (pin unspecified line (at 12.7 2.54 180) (length 7.62)
        (name "7" (effects (font (size 1.4986 1.4986))))
        (number "7" (effects (font (size 1.4986 1.4986))))
      )
      (pin unspecified line (at 12.7 5.08 180) (length 7.62)
        (name "8" (effects (font (size 1.4986 1.4986))))
        (number "8" (effects (font (size 1.4986 1.4986))))
      )
    )
  )
  (symbol "Downloaded:SMBJ5.0A-13-F" (pin_numbers hide) (pin_names (offset -1.651) hide) (in_bom yes) (on_board yes)
    (property "Reference" "CR" (id 0) (at 5.08 4.445 0)
      (effects (font (size 1.524 1.524)))
    )
    (property "Value" "SMBJ5.0A-13-F" (id 1) (at 5.08 -7.62 0)
      (effects (font (size 1.524 1.524)))
    )
    (property "Footprint" "SMB_DIO" (id 2) (at 5.08 -9.144 0)
      (effects (font (size 1.524 1.524)) hide)
    )
    (property "Datasheet" "" (id 3) (at 0 0 0)
      (effects (font (size 1.524 1.524)))
    )
    (property "ki_locked" "" (id 4) (at 0 0 0)
      (effects (font (size 1.27 1.27)))
    )
    (property "ki_fp_filters" "SMB_DIO SMB_DIO-M SMB_DIO-L" (id 5) (at 0 0 0)
      (effects (font (size 1.27 1.27)) hide)
    )
    (symbol "SMBJ5.0A-13-F_1_1"
      (polyline
        (pts
          (xy 2.54 0)
          (xy 3.4798 0)
        )
        (stroke (width 0.2032)) (fill (type none))
      )
      (polyline
        (pts
          (xy 3.175 0)
          (xy 3.81 0)
        )
        (stroke (width 0.2032)) (fill (type none))
      )
      (polyline
        (pts
          (xy 3.81 -1.905)
          (xy 6.35 0)
        )
        (stroke (width 0.2032)) (fill (type none))
      )
      (polyline
        (pts
          (xy 3.81 1.905)
          (xy 3.81 -1.905)
        )
        (stroke (width 0.2032)) (fill (type none))
      )
      (polyline
        (pts
          (xy 5.842 -1.905)
          (xy 6.35 -1.397)
        )
        (stroke (width 0.2032)) (fill (type none))
      )
      (polyline
        (pts
          (xy 6.35 -1.397)
          (xy 6.35 1.524)
        )
        (stroke (width 0.2032)) (fill (type none))
      )
      (polyline
        (pts
          (xy 6.35 0)
          (xy 3.81 1.905)
        )
        (stroke (width 0.2032)) (fill (type none))
      )
      (polyline
        (pts
          (xy 6.35 0)
          (xy 7.62 0)
        )
        (stroke (width 0.2032)) (fill (type none))
      )
      (polyline
        (pts
          (xy 6.35 1.524)
          (xy 6.858 2.032)
        )
        (stroke (width 0.2032)) (fill (type none))
      )
      (pin unspecified line (at 10.16 0 180) (length 2.54)
        (name "1" (effects (font (size 1.4986 1.4986))))
        (number "1" (effects (font (size 1.4986 1.4986))))
      )
      (pin unspecified line (at 0 0 0) (length 2.54)
        (name "2" (effects (font (size 1.4986 1.4986))))
        (number "2" (effects (font (size 1.4986 1.4986))))
      )
    )
  )
  (symbol "Downloaded:SMBJP6KE6.8A-TP" (pin_numbers hide) (pin_names (offset 1.016) hide) (in_bom yes) (on_board yes)
    (property "Reference" "D" (id 0) (at -5.08 2.413 0)
      (effects (font (size 1.27 1.27)) (justify left bottom))
    )
    (property "Value" "SMBJP6KE6.8A-TP" (id 1) (at -5.08 -4.953 0)
      (effects (font (size 1.27 1.27)) (justify left bottom))
    )
    (property "Footprint" "DIOM5336X244N" (id 2) (at 0 0 0)
      (effects (font (size 1.27 1.27)) (justify left bottom) hide)
    )
    (property "Datasheet" "" (id 3) (at 0 0 0)
      (effects (font (size 1.27 1.27)) (justify left bottom) hide)
    )
    (property "PARTREV" "E" (id 4) (at 0 0 0)
      (effects (font (size 1.27 1.27)) (justify left bottom) hide)
    )
    (property "MANUFACTURER" "MCC" (id 5) (at 0 0 0)
      (effects (font (size 1.27 1.27)) (justify left bottom) hide)
    )
    (property "STANDARD" "IPC-7351B" (id 6) (at 0 0 0)
      (effects (font (size 1.27 1.27)) (justify left bottom) hide)
    )
    (property "ki_locked" "" (id 7) (at 0 0 0)
      (effects (font (size 1.27 1.27)))
    )
    (symbol "SMBJP6KE6.8A-TP_0_0"
      (polyline
        (pts
          (xy -1.27 -1.27)
          (xy -1.27 0)
        )
        (stroke (width 0.254)) (fill (type none))
      )
      (polyline
        (pts
          (xy -1.27 0)
          (xy -1.27 1.27)
        )
        (stroke (width 0.254)) (fill (type none))
      )
      (polyline
        (pts
          (xy -1.27 0)
          (xy 1.27 -1.27)
        )
        (stroke (width 0.254)) (fill (type none))
      )
      (polyline
        (pts
          (xy -0.635 -1.27)
          (xy -1.27 -1.27)
        )
        (stroke (width 0.254)) (fill (type none))
      )
      (polyline
        (pts
          (xy 1.27 -1.27)
          (xy 1.27 1.27)
        )
        (stroke (width 0.254)) (fill (type none))
      )
      (polyline
        (pts
          (xy 1.27 1.27)
          (xy -1.27 0)
        )
        (stroke (width 0.254)) (fill (type none))
      )
      (pin passive line (at 5.08 0 180) (length 5.08)
        (name "~" (effects (font (size 1.016 1.016))))
        (number "A" (effects (font (size 1.016 1.016))))
      )
      (pin passive line (at -5.08 0 0) (length 5.08)
        (name "~" (effects (font (size 1.016 1.016))))
        (number "C" (effects (font (size 1.016 1.016))))
      )
    )
  )
  (symbol "Downloaded:TPS62152AQRGTRQ1" (pin_names (offset 0.254)) (in_bom yes) (on_board yes)
    (property "Reference" "U" (id 0) (at 22.86 12.7 0)
      (effects (font (size 1.524 1.524)))
    )
    (property "Value" "TPS62152AQRGTRQ1" (id 1) (at 22.86 10.16 0)
      (effects (font (size 1.524 1.524)))
    )
    (property "Footprint" "QFN_RGTRQ1_TEX" (id 2) (at 22.86 8.636 0)
      (effects (font (size 1.524 1.524)) hide)
    )
    (property "Datasheet" "" (id 3) (at 0 0 0)
      (effects (font (size 1.524 1.524)))
    )
    (property "ki_locked" "" (id 4) (at 0 0 0)
      (effects (font (size 1.27 1.27)))
    )
    (property "ki_fp_filters" "QFN_RGTRQ1_TEX QFN_RGTRQ1_TEX-M QFN_RGTRQ1_TEX-L" (id 5) (at 0 0 0)
      (effects (font (size 1.27 1.27)) hide)
    )
    (symbol "TPS62152AQRGTRQ1_1_1"
      (polyline
        (pts
          (xy 7.62 -40.64)
          (xy 38.1 -40.64)
        )
        (stroke (width 0.127)) (fill (type none))
      )
      (polyline
        (pts
          (xy 7.62 7.62)
          (xy 7.62 -40.64)
        )
        (stroke (width 0.127)) (fill (type none))
      )
      (polyline
        (pts
          (xy 38.1 -40.64)
          (xy 38.1 7.62)
        )
        (stroke (width 0.127)) (fill (type none))
      )
      (polyline
        (pts
          (xy 38.1 7.62)
          (xy 7.62 7.62)
        )
        (stroke (width 0.127)) (fill (type none))
      )
      (pin unspecified line (at 45.72 -12.7 180) (length 7.62)
        (name "SW" (effects (font (size 1.4986 1.4986))))
        (number "1" (effects (font (size 1.4986 1.4986))))
      )
      (pin unspecified line (at 0 0 0) (length 7.62)
        (name "AVIN" (effects (font (size 1.4986 1.4986))))
        (number "10" (effects (font (size 1.4986 1.4986))))
      )
      (pin unspecified line (at 45.72 -5.08 180) (length 7.62)
        (name "PVIN" (effects (font (size 1.4986 1.4986))))
        (number "11" (effects (font (size 1.4986 1.4986))))
      )
      (pin unspecified line (at 45.72 -7.62 180) (length 7.62)
        (name "PVIN" (effects (font (size 1.4986 1.4986))))
        (number "12" (effects (font (size 1.4986 1.4986))))
      )
      (pin unspecified line (at 0 -5.08 0) (length 7.62)
        (name "EN" (effects (font (size 1.4986 1.4986))))
        (number "13" (effects (font (size 1.4986 1.4986))))
      )
      (pin unspecified line (at 0 -17.78 0) (length 7.62)
        (name "VOS" (effects (font (size 1.4986 1.4986))))
        (number "14" (effects (font (size 1.4986 1.4986))))
      )
      (pin power_in line (at 0 -33.02 0) (length 7.62)
        (name "PGND" (effects (font (size 1.4986 1.4986))))
        (number "15" (effects (font (size 1.4986 1.4986))))
      )
      (pin power_in line (at 0 -35.56 0) (length 7.62)
        (name "PGND" (effects (font (size 1.4986 1.4986))))
        (number "16" (effects (font (size 1.4986 1.4986))))
      )
      (pin unspecified line (at 0 -15.24 0) (length 7.62)
        (name "THERMAL" (effects (font (size 1.4986 1.4986))))
        (number "17" (effects (font (size 1.4986 1.4986))))
      )
      (pin unspecified line (at 45.72 -15.24 180) (length 7.62)
        (name "SW" (effects (font (size 1.4986 1.4986))))
        (number "2" (effects (font (size 1.4986 1.4986))))
      )
      (pin unspecified line (at 45.72 -17.78 180) (length 7.62)
        (name "SW" (effects (font (size 1.4986 1.4986))))
        (number "3" (effects (font (size 1.4986 1.4986))))
      )
      (pin unspecified line (at 45.72 0 180) (length 7.62)
        (name "PG" (effects (font (size 1.4986 1.4986))))
        (number "4" (effects (font (size 1.4986 1.4986))))
      )
      (pin unspecified line (at 0 -7.62 0) (length 7.62)
        (name "FB" (effects (font (size 1.4986 1.4986))))
        (number "5" (effects (font (size 1.4986 1.4986))))
      )
      (pin power_in line (at 0 -27.94 0) (length 7.62)
        (name "AGND" (effects (font (size 1.4986 1.4986))))
        (number "6" (effects (font (size 1.4986 1.4986))))
      )
      (pin unspecified line (at 0 -10.16 0) (length 7.62)
        (name "FSW" (effects (font (size 1.4986 1.4986))))
        (number "7" (effects (font (size 1.4986 1.4986))))
      )
      (pin unspecified line (at 0 -2.54 0) (length 7.62)
        (name "DEF" (effects (font (size 1.4986 1.4986))))
        (number "8" (effects (font (size 1.4986 1.4986))))
      )
      (pin unspecified line (at 0 -12.7 0) (length 7.62)
        (name "SS/TR" (effects (font (size 1.4986 1.4986))))
        (number "9" (effects (font (size 1.4986 1.4986))))
      )
    )
  )
  (symbol "Downloaded:TPS62912RPUR" (pin_names (offset 0.254)) (in_bom yes) (on_board yes)
    (property "Reference" "U" (id 0) (at 0 2.54 0)
      (effects (font (size 1.524 1.524)))
    )
    (property "Value" "TPS62912RPUR" (id 1) (at 0 0 0)
      (effects (font (size 1.524 1.524)))
    )
    (property "Footprint" "RPU0010A-MFG" (id 2) (at 0 -1.524 0)
      (effects (font (size 1.524 1.524)) hide)
    )
    (property "Datasheet" "" (id 3) (at 0 0 0)
      (effects (font (size 1.524 1.524)))
    )
    (property "ki_locked" "" (id 4) (at 0 0 0)
      (effects (font (size 1.27 1.27)))
    )
    (property "ki_fp_filters" "RPU0010A-MFG" (id 5) (at 0 0 0)
      (effects (font (size 1.27 1.27)) hide)
    )
    (symbol "TPS62912RPUR_1_1"
      (polyline
        (pts
          (xy 5.08 -27.94)
          (xy 40.64 -27.94)
        )
        (stroke (width 0.2032)) (fill (type none))
      )
      (polyline
        (pts
          (xy 5.08 5.08)
          (xy 5.08 -27.94)
        )
        (stroke (width 0.2032)) (fill (type none))
      )
      (polyline
        (pts
          (xy 40.64 -27.94)
          (xy 40.64 5.08)
        )
        (stroke (width 0.2032)) (fill (type none))
      )
      (polyline
        (pts
          (xy 40.64 5.08)
          (xy 5.08 5.08)
        )
        (stroke (width 0.2032)) (fill (type none))
      )
      (pin input line (at 0 -5.08 0) (length 5.08)
        (name "EN_SYNC" (effects (font (size 1.4986 1.4986))))
        (number "1" (effects (font (size 1.4986 1.4986))))
      )
      (pin power_in line (at 0 -10.16 0) (length 5.08)
        (name "S-CONF" (effects (font (size 1.4986 1.4986))))
        (number "10" (effects (font (size 1.4986 1.4986))))
      )
      (pin unspecified line (at 45.72 0 180) (length 5.08)
        (name "SW" (effects (font (size 1.4986 1.4986))))
        (number "2" (effects (font (size 1.4986 1.4986))))
      )
      (pin unspecified line (at 45.72 -5.08 180) (length 5.08)
        (name "VO" (effects (font (size 1.4986 1.4986))))
        (number "3" (effects (font (size 1.4986 1.4986))))
      )
      (pin power_in line (at 45.72 -25.4 180) (length 5.08)
        (name "PGND" (effects (font (size 1.4986 1.4986))))
        (number "4" (effects (font (size 1.4986 1.4986))))
      )
      (pin open_collector line (at 45.72 -20.32 180) (length 5.08)
        (name "PG" (effects (font (size 1.4986 1.4986))))
        (number "5" (effects (font (size 1.4986 1.4986))))
      )
      (pin power_in line (at 0 0 0) (length 5.08)
        (name "VIN" (effects (font (size 1.4986 1.4986))))
        (number "6" (effects (font (size 1.4986 1.4986))))
      )
      (pin power_in line (at 0 -15.24 0) (length 5.08)
        (name "PSNS" (effects (font (size 1.4986 1.4986))))
        (number "7" (effects (font (size 1.4986 1.4986))))
      )
      (pin unspecified line (at 45.72 -15.24 180) (length 5.08)
        (name "NR_SS" (effects (font (size 1.4986 1.4986))))
        (number "8" (effects (font (size 1.4986 1.4986))))
      )
      (pin unspecified line (at 45.72 -10.16 180) (length 5.08)
        (name "FB" (effects (font (size 1.4986 1.4986))))
        (number "9" (effects (font (size 1.4986 1.4986))))
      )
    )
  )
  (symbol "Downloaded:TUSB2036VFR" (pin_names (offset 0.254)) (in_bom yes) (on_board yes)
    (property "Reference" "U" (id 0) (at 29.21 10.16 0)
      (effects (font (size 1.524 1.524)))
    )
    (property "Value" "TUSB2036VFR" (id 1) (at 29.21 7.62 0)
      (effects (font (size 1.524 1.524)))
    )
    (property "Footprint" "VF32" (id 2) (at 29.21 6.096 0)
      (effects (font (size 1.524 1.524)) hide)
    )
    (property "Datasheet" "" (id 3) (at 0 0 0)
      (effects (font (size 1.524 1.524)))
    )
    (property "ki_fp_filters" "VF32 VF32-M VF32-L" (id 4) (at 0 0 0)
      (effects (font (size 1.27 1.27)) hide)
    )
    (symbol "TUSB2036VFR_1_1"
      (polyline
        (pts
          (xy 7.62 -63.5)
          (xy 45.72 -63.5)
        )
        (stroke (width 0.127)) (fill (type none))
      )
      (polyline
        (pts
          (xy 7.62 5.08)
          (xy 7.62 -63.5)
        )
        (stroke (width 0.127)) (fill (type none))
      )
      (polyline
        (pts
          (xy 45.72 -63.5)
          (xy 45.72 5.08)
        )
        (stroke (width 0.127)) (fill (type none))
      )
      (polyline
        (pts
          (xy 45.72 5.08)
          (xy 7.62 5.08)
        )
        (stroke (width 0.127)) (fill (type none))
      )
      (pin bidirectional line (at 0 -26.67 0) (length 7.62)
        (name "DP0" (effects (font (size 1.4986 1.4986))))
        (number "1" (effects (font (size 1.4986 1.4986))))
      )
      (pin input line (at 53.34 -5.08 180) (length 7.62)
        (name "*OVRCUR1" (effects (font (size 1.4986 1.4986))))
        (number "10" (effects (font (size 1.4986 1.4986))))
      )
      (pin bidirectional line (at 53.34 -2.54 180) (length 7.62)
        (name "DM1" (effects (font (size 1.4986 1.4986))))
        (number "11" (effects (font (size 1.4986 1.4986))))
      )
      (pin bidirectional line (at 53.34 0 180) (length 7.62)
        (name "DP1" (effects (font (size 1.4986 1.4986))))
        (number "12" (effects (font (size 1.4986 1.4986))))
      )
      (pin output line (at 53.34 -20.32 180) (length 7.62)
        (name "*PWRON2" (effects (font (size 1.4986 1.4986))))
        (number "13" (effects (font (size 1.4986 1.4986))))
      )
      (pin input line (at 53.34 -17.78 180) (length 7.62)
        (name "*OVRCUR2" (effects (font (size 1.4986 1.4986))))
        (number "14" (effects (font (size 1.4986 1.4986))))
      )
      (pin bidirectional line (at 53.34 -15.24 180) (length 7.62)
        (name "DM2" (effects (font (size 1.4986 1.4986))))
        (number "15" (effects (font (size 1.4986 1.4986))))
      )
      (pin bidirectional line (at 53.34 -12.7 180) (length 7.62)
        (name "DP2" (effects (font (size 1.4986 1.4986))))
        (number "16" (effects (font (size 1.4986 1.4986))))
      )
      (pin output line (at 53.34 -33.02 180) (length 7.62)
        (name "*PWRON3" (effects (font (size 1.4986 1.4986))))
        (number "17" (effects (font (size 1.4986 1.4986))))
      )
      (pin input line (at 53.34 -30.48 180) (length 7.62)
        (name "*OVRCUR3" (effects (font (size 1.4986 1.4986))))
        (number "18" (effects (font (size 1.4986 1.4986))))
      )
      (pin bidirectional line (at 53.34 -27.94 180) (length 7.62)
        (name "DM3" (effects (font (size 1.4986 1.4986))))
        (number "19" (effects (font (size 1.4986 1.4986))))
      )
      (pin bidirectional line (at 0 -29.21 0) (length 7.62)
        (name "DM0" (effects (font (size 1.4986 1.4986))))
        (number "2" (effects (font (size 1.4986 1.4986))))
      )
      (pin bidirectional line (at 53.34 -25.4 180) (length 7.62)
        (name "DP3" (effects (font (size 1.4986 1.4986))))
        (number "20" (effects (font (size 1.4986 1.4986))))
      )
      (pin input line (at 0 -5.08 0) (length 7.62)
        (name "*OCPROT/*PWRSW" (effects (font (size 1.4986 1.4986))))
        (number "21" (effects (font (size 1.4986 1.4986))))
      )
      (pin unspecified line (at 0 -57.15 0) (length 7.62)
        (name "NPINT0" (effects (font (size 1.4986 1.4986))))
        (number "22" (effects (font (size 1.4986 1.4986))))
      )
      (pin unspecified line (at 0 -54.61 0) (length 7.62)
        (name "NPINT1" (effects (font (size 1.4986 1.4986))))
        (number "23" (effects (font (size 1.4986 1.4986))))
      )
      (pin unspecified line (at 0 -59.69 0) (length 7.62)
        (name "*NP3" (effects (font (size 1.4986 1.4986))))
        (number "24" (effects (font (size 1.4986 1.4986))))
      )
      (pin input line (at 0 -40.64 0) (length 7.62)
        (name "*EXTMEM" (effects (font (size 1.4986 1.4986))))
        (number "26" (effects (font (size 1.4986 1.4986))))
      )
      (pin output line (at 0 -19.05 0) (length 7.62)
        (name "DP0PUR" (effects (font (size 1.4986 1.4986))))
        (number "27" (effects (font (size 1.4986 1.4986))))
      )
      (pin output line (at 53.34 -45.72 180) (length 7.62)
        (name "XTAL2" (effects (font (size 1.4986 1.4986))))
        (number "29" (effects (font (size 1.4986 1.4986))))
      )
      (pin input line (at 53.34 -55.88 180) (length 7.62)
        (name "XTAL1/CLK48" (effects (font (size 1.4986 1.4986))))
        (number "30" (effects (font (size 1.4986 1.4986))))
      )
      (pin input line (at 53.34 -58.42 180) (length 7.62)
        (name "MODE" (effects (font (size 1.4986 1.4986))))
        (number "31" (effects (font (size 1.4986 1.4986))))
      )
      (pin output line (at 0 -10.16 0) (length 7.62)
        (name "SUSPND" (effects (font (size 1.4986 1.4986))))
        (number "32" (effects (font (size 1.4986 1.4986))))
      )
      (pin input line (at 0 -7.62 0) (length 7.62)
        (name "*RESET" (effects (font (size 1.4986 1.4986))))
        (number "4" (effects (font (size 1.4986 1.4986))))
      )
      (pin output line (at 0 -43.18 0) (length 7.62)
        (name "EECLK" (effects (font (size 1.4986 1.4986))))
        (number "5" (effects (font (size 1.4986 1.4986))))
      )
      (pin bidirectional line (at 0 -45.72 0) (length 7.62)
        (name "EEDATA/*GANGED" (effects (font (size 1.4986 1.4986))))
        (number "6" (effects (font (size 1.4986 1.4986))))
      )
      (pin input line (at 0 0 0) (length 7.62)
        (name "*BUSPWR" (effects (font (size 1.4986 1.4986))))
        (number "8" (effects (font (size 1.4986 1.4986))))
      )
      (pin output line (at 53.34 -7.62 180) (length 7.62)
        (name "*PWRON1" (effects (font (size 1.4986 1.4986))))
        (number "9" (effects (font (size 1.4986 1.4986))))
      )
    )
    (symbol "TUSB2036VFR_2_1"
      (polyline
        (pts
          (xy 7.62 -15.24)
          (xy 33.02 -15.24)
        )
        (stroke (width 0.127)) (fill (type none))
      )
      (polyline
        (pts
          (xy 7.62 5.08)
          (xy 7.62 -15.24)
        )
        (stroke (width 0.127)) (fill (type none))
      )
      (polyline
        (pts
          (xy 33.02 -15.24)
          (xy 33.02 5.08)
        )
        (stroke (width 0.127)) (fill (type none))
      )
      (polyline
        (pts
          (xy 33.02 5.08)
          (xy 7.62 5.08)
        )
        (stroke (width 0.127)) (fill (type none))
      )
      (pin power_in line (at 0 0 0) (length 7.62)
        (name "V" (effects (font (size 1.4986 1.4986))))
        (number "25" (effects (font (size 1.4986 1.4986))))
      )
      (pin power_in line (at 0 -10.16 0) (length 7.62)
        (name "GND" (effects (font (size 1.4986 1.4986))))
        (number "28" (effects (font (size 1.4986 1.4986))))
      )
      (pin power_in line (at 0 -2.54 0) (length 7.62)
        (name "VCC" (effects (font (size 1.4986 1.4986))))
        (number "3" (effects (font (size 1.4986 1.4986))))
      )
      (pin power_in line (at 0 -7.62 0) (length 7.62)
        (name "GND" (effects (font (size 1.4986 1.4986))))
        (number "7" (effects (font (size 1.4986 1.4986))))
      )
    )
  )
)
