(footprint "Osram-LCW_MVSG.EC-0-0-MFG" (version 20210424) (generator pcbnew) (layer "F.Cu")
  (tedit 60AFD4DE)
  (attr through_hole)
  (fp_text reference "REF**" (at -1.175 -1.75) (layer "F.SilkS")
    (effects (font (size 1 1) (thickness 0.15)) (justify left))
    (tstamp 00000000-0000-0000-0000-000000000000)
  )
  (fp_text value "Val**" (at 0 0) (layer "F.SilkS")
    (effects (font (size 1.27 1.27) (thickness 0.15)))
    (tstamp 00000000-0000-0000-0000-000000000000)
  )
  (fp_line (start 1.05 -0.875) (end 1.05 -0.95) (layer "F.SilkS") (width 0.15) (tstamp 00000000-0000-0000-0000-000000000000))
  (fp_line (start 2.025 -0.25) (end 2.025 0.25) (layer "F.SilkS") (width 0.15) (tstamp 00000000-0000-0000-0000-000000000000))
  (fp_line (start -1.05 -0.875) (end -1.05 -0.95) (layer "F.SilkS") (width 0.15) (tstamp 00000000-0000-0000-0000-000000000000))
  (fp_line (start 1.05 0.95) (end 1.05 0.875) (layer "F.SilkS") (width 0.15) (tstamp 00000000-0000-0000-0000-000000000000))
  (fp_line (start -1.05 -0.95) (end 1.05 -0.95) (layer "F.SilkS") (width 0.15) (tstamp 00000000-0000-0000-0000-000000000000))
  (fp_line (start -1.05 0.95) (end 1.05 0.95) (layer "F.SilkS") (width 0.15) (tstamp 00000000-0000-0000-0000-000000000000))
  (fp_line (start -1.05 0.95) (end -1.05 0.875) (layer "F.SilkS") (width 0.15) (tstamp 00000000-0000-0000-0000-000000000000))
  (fp_line (start 1.775 0) (end 2.275 0) (layer "F.SilkS") (width 0.15) (tstamp 00000000-0000-0000-0000-000000000000))
  (fp_line (start 1.425 -0.975) (end 1.425 -0.975) (layer "F.CrtYd") (width 0.15) (tstamp 00000000-0000-0000-0000-000000000000))
  (fp_line (start 1.425 -0.975) (end -1.425 -0.975) (layer "F.CrtYd") (width 0.15) (tstamp 00000000-0000-0000-0000-000000000000))
  (fp_line (start -1.425 -0.975) (end -1.425 0.975) (layer "F.CrtYd") (width 0.15) (tstamp 00000000-0000-0000-0000-000000000000))
  (fp_line (start 1.425 0.975) (end 1.425 -0.975) (layer "F.CrtYd") (width 0.15) (tstamp 00000000-0000-0000-0000-000000000000))
  (fp_line (start -1.425 0.975) (end 1.425 0.975) (layer "F.CrtYd") (width 0.15) (tstamp 00000000-0000-0000-0000-000000000000))
  (fp_line (start 1.05 -0.95) (end 1.05 0.95) (layer "F.Fab") (width 0.15) (tstamp 00000000-0000-0000-0000-000000000000))
  (fp_line (start -1.05 -0.95) (end 1.05 -0.95) (layer "F.Fab") (width 0.15) (tstamp 00000000-0000-0000-0000-000000000000))
  (fp_line (start 1.05 0.95) (end -1.05 0.95) (layer "F.Fab") (width 0.15) (tstamp 00000000-0000-0000-0000-000000000000))
  (fp_line (start -1.05 0.95) (end -1.05 -0.95) (layer "F.Fab") (width 0.15) (tstamp 00000000-0000-0000-0000-000000000000))
  (pad "1" smd rect locked (at -1 0) (size 0.8 1) (layers "F.Cu" "F.Paste" "F.Mask") (tstamp 00000000-0000-0000-0000-000000000000))
  (pad "2" smd rect locked (at 1 0) (size 0.8 1) (layers "F.Cu" "F.Paste" "F.Mask") (tstamp 00000000-0000-0000-0000-000000000000))
  (model "/home/seb/git/KiCad-Library/Download/LCW-MVSG.EC/eec.models/Osram_-_LCW_MVSG.EC-BXCX-4L8N-1.step"
    (offset (xyz 0 0 0))
    (scale (xyz 1 1 1))
    (rotate (xyz 0 0 0))
  )
)
